relatorio8/projeto 8/simulation/qsim/semaforos.msim.vcd
$comment
	File created using the following command:
		vcd file semaforos.msim.vcd -direction
$end
$date
	Tue Feb 25 11:39:03 2025
$end
$version
	ModelSim Version 10.5b
$end
$timescale
	1ps
$end

$scope module semaforos_vhd_vec_tst $end
$var wire 1 ! clock $end
$var wire 1 " mode_select [1] $end
$var wire 1 # mode_select [0] $end
$var wire 1 $ reset $end
$var wire 1 % semaforo1 [2] $end
$var wire 1 & semaforo1 [1] $end
$var wire 1 ' semaforo1 [0] $end
$var wire 1 ( semaforo2 [2] $end
$var wire 1 ) semaforo2 [1] $end
$var wire 1 * semaforo2 [0] $end

$scope module i1 $end
$var wire 1 + gnd $end
$var wire 1 , vcc $end
$var wire 1 - unknown $end
$var wire 1 . devoe $end
$var wire 1 / devclrn $end
$var wire 1 0 devpor $end
$var wire 1 1 ww_devoe $end
$var wire 1 2 ww_devclrn $end
$var wire 1 3 ww_devpor $end
$var wire 1 4 ww_clock $end
$var wire 1 5 ww_reset $end
$var wire 1 6 ww_mode_select [1] $end
$var wire 1 7 ww_mode_select [0] $end
$var wire 1 8 ww_semaforo1 [2] $end
$var wire 1 9 ww_semaforo1 [1] $end
$var wire 1 : ww_semaforo1 [0] $end
$var wire 1 ; ww_semaforo2 [2] $end
$var wire 1 < ww_semaforo2 [1] $end
$var wire 1 = ww_semaforo2 [0] $end
$var wire 1 > \~QUARTUS_CREATED_ADC1~_CHSEL_bus\ [4] $end
$var wire 1 ? \~QUARTUS_CREATED_ADC1~_CHSEL_bus\ [3] $end
$var wire 1 @ \~QUARTUS_CREATED_ADC1~_CHSEL_bus\ [2] $end
$var wire 1 A \~QUARTUS_CREATED_ADC1~_CHSEL_bus\ [1] $end
$var wire 1 B \~QUARTUS_CREATED_ADC1~_CHSEL_bus\ [0] $end
$var wire 1 C \~QUARTUS_CREATED_ADC2~_CHSEL_bus\ [4] $end
$var wire 1 D \~QUARTUS_CREATED_ADC2~_CHSEL_bus\ [3] $end
$var wire 1 E \~QUARTUS_CREATED_ADC2~_CHSEL_bus\ [2] $end
$var wire 1 F \~QUARTUS_CREATED_ADC2~_CHSEL_bus\ [1] $end
$var wire 1 G \~QUARTUS_CREATED_ADC2~_CHSEL_bus\ [0] $end
$var wire 1 H \clock_div~clkctrl_INCLK_bus\ [3] $end
$var wire 1 I \clock_div~clkctrl_INCLK_bus\ [2] $end
$var wire 1 J \clock_div~clkctrl_INCLK_bus\ [1] $end
$var wire 1 K \clock_div~clkctrl_INCLK_bus\ [0] $end
$var wire 1 L \clock~inputclkctrl_INCLK_bus\ [3] $end
$var wire 1 M \clock~inputclkctrl_INCLK_bus\ [2] $end
$var wire 1 N \clock~inputclkctrl_INCLK_bus\ [1] $end
$var wire 1 O \clock~inputclkctrl_INCLK_bus\ [0] $end
$var wire 1 P \~QUARTUS_CREATED_GND~I_combout\ $end
$var wire 1 Q \~QUARTUS_CREATED_UNVM~~busy\ $end
$var wire 1 R \~QUARTUS_CREATED_ADC1~~eoc\ $end
$var wire 1 S \~QUARTUS_CREATED_ADC2~~eoc\ $end
$var wire 1 T \semaforo1[0]~output_o\ $end
$var wire 1 U \semaforo1[1]~output_o\ $end
$var wire 1 V \semaforo1[2]~output_o\ $end
$var wire 1 W \semaforo2[0]~output_o\ $end
$var wire 1 X \semaforo2[1]~output_o\ $end
$var wire 1 Y \semaforo2[2]~output_o\ $end
$var wire 1 Z \mode_select[1]~input_o\ $end
$var wire 1 [ \clock~input_o\ $end
$var wire 1 \ \clock~inputclkctrl_outclk\ $end
$var wire 1 ] \Add0~0_combout\ $end
$var wire 1 ^ \reset~input_o\ $end
$var wire 1 _ \Add0~1\ $end
$var wire 1 ` \Add0~2_combout\ $end
$var wire 1 a \Add0~3\ $end
$var wire 1 b \Add0~4_combout\ $end
$var wire 1 c \Add0~5\ $end
$var wire 1 d \Add0~6_combout\ $end
$var wire 1 e \Add0~7\ $end
$var wire 1 f \Add0~8_combout\ $end
$var wire 1 g \Equal0~6_combout\ $end
$var wire 1 h \Add0~9\ $end
$var wire 1 i \Add0~10_combout\ $end
$var wire 1 j \Add0~11\ $end
$var wire 1 k \Add0~12_combout\ $end
$var wire 1 l \contador_div~11_combout\ $end
$var wire 1 m \Add0~13\ $end
$var wire 1 n \Add0~14_combout\ $end
$var wire 1 o \Add0~15\ $end
$var wire 1 p \Add0~16_combout\ $end
$var wire 1 q \Equal0~5_combout\ $end
$var wire 1 r \Add0~17\ $end
$var wire 1 s \Add0~18_combout\ $end
$var wire 1 t \Add0~19\ $end
$var wire 1 u \Add0~20_combout\ $end
$var wire 1 v \Add0~21\ $end
$var wire 1 w \Add0~22_combout\ $end
$var wire 1 x \contador_div~10_combout\ $end
$var wire 1 y \Add0~23\ $end
$var wire 1 z \Add0~24_combout\ $end
$var wire 1 { \contador_div~9_combout\ $end
$var wire 1 | \Add0~25\ $end
$var wire 1 } \Add0~26_combout\ $end
$var wire 1 ~ \contador_div~8_combout\ $end
$var wire 1 !! \Add0~27\ $end
$var wire 1 "! \Add0~28_combout\ $end
$var wire 1 #! \contador_div~7_combout\ $end
$var wire 1 $! \Add0~29\ $end
$var wire 1 %! \Add0~30_combout\ $end
$var wire 1 &! \Add0~31\ $end
$var wire 1 '! \Add0~32_combout\ $end
$var wire 1 (! \contador_div~6_combout\ $end
$var wire 1 )! \Add0~33\ $end
$var wire 1 *! \Add0~34_combout\ $end
$var wire 1 +! \Add0~35\ $end
$var wire 1 ,! \Add0~36_combout\ $end
$var wire 1 -! \contador_div~5_combout\ $end
$var wire 1 .! \Add0~37\ $end
$var wire 1 /! \Add0~38_combout\ $end
$var wire 1 0! \contador_div~4_combout\ $end
$var wire 1 1! \Add0~39\ $end
$var wire 1 2! \Add0~40_combout\ $end
$var wire 1 3! \contador_div~3_combout\ $end
$var wire 1 4! \Equal0~1_combout\ $end
$var wire 1 5! \Add0~41\ $end
$var wire 1 6! \Add0~42_combout\ $end
$var wire 1 7! \contador_div~2_combout\ $end
$var wire 1 8! \Add0~43\ $end
$var wire 1 9! \Add0~44_combout\ $end
$var wire 1 :! \contador_div~1_combout\ $end
$var wire 1 ;! \Add0~45\ $end
$var wire 1 <! \Add0~46_combout\ $end
$var wire 1 =! \Add0~47\ $end
$var wire 1 >! \Add0~48_combout\ $end
$var wire 1 ?! \contador_div~0_combout\ $end
$var wire 1 @! \Equal0~0_combout\ $end
$var wire 1 A! \Equal0~2_combout\ $end
$var wire 1 B! \Equal0~3_combout\ $end
$var wire 1 C! \Equal0~4_combout\ $end
$var wire 1 D! \Equal0~7_combout\ $end
$var wire 1 E! \clock_div~0_combout\ $end
$var wire 1 F! \clock_div~feeder_combout\ $end
$var wire 1 G! \clock_div~q\ $end
$var wire 1 H! \clock_div~clkctrl_outclk\ $end
$var wire 1 I! \mode_select[0]~input_o\ $end
$var wire 1 J! \estado_atual.S1_RED_S2_GREEN~2_combout\ $end
$var wire 1 K! \contador~3_combout\ $end
$var wire 1 L! \LessThan4~0_combout\ $end
$var wire 1 M! \contador~1_combout\ $end
$var wire 1 N! \estado_atual.S1_RED_S2_YELLOW~0_combout\ $end
$var wire 1 O! \estado_atual~25_combout\ $end
$var wire 1 P! \LessThan1~0_combout\ $end
$var wire 1 Q! \estado_atual~22_combout\ $end
$var wire 1 R! \estado_atual.S1_YELLOW_S2_RED~0_combout\ $end
$var wire 1 S! \estado_atual.STANDBY_OFF~0_combout\ $end
$var wire 1 T! \estado_atual.STANDBY_OFF~1_combout\ $end
$var wire 1 U! \estado_atual.STANDBY_OFF~q\ $end
$var wire 1 V! \estado_atual.S1_RED_S2_GREEN~1_combout\ $end
$var wire 1 W! \estado_atual.S1_YELLOW_S2_RED~1_combout\ $end
$var wire 1 X! \estado_atual~33_combout\ $end
$var wire 1 Y! \estado_atual~31_combout\ $end
$var wire 1 Z! \estado_atual~30_combout\ $end
$var wire 1 [! \estado_atual~32_combout\ $end
$var wire 1 \! \estado_atual~34_combout\ $end
$var wire 1 ]! \estado_atual.S1_RED_S2_YELLOW~1_combout\ $end
$var wire 1 ^! \estado_atual.S1_RED_S2_YELLOW~q\ $end
$var wire 1 _! \estado_atual.S1_YELLOW_S2_RED~2_combout\ $end
$var wire 1 `! \estado_atual.S1_YELLOW_S2_RED~q\ $end
$var wire 1 a! \Mux0~0_combout\ $end
$var wire 1 b! \Mux2~0_combout\ $end
$var wire 1 c! \Add1~2_combout\ $end
$var wire 1 d! \LessThan0~1_combout\ $end
$var wire 1 e! \Mux3~0_combout\ $end
$var wire 1 f! \Add1~3_combout\ $end
$var wire 1 g! \Add1~4_combout\ $end
$var wire 1 h! \LessThan0~2_combout\ $end
$var wire 1 i! \Mux0~1_combout\ $end
$var wire 1 j! \Add1~0_combout\ $end
$var wire 1 k! \Add1~1_combout\ $end
$var wire 1 l! \LessThan0~3_combout\ $end
$var wire 1 m! \contador~2_combout\ $end
$var wire 1 n! \LessThan5~0_combout\ $end
$var wire 1 o! \contador~0_combout\ $end
$var wire 1 p! \LessThan0~0_combout\ $end
$var wire 1 q! \estado_atual~41_combout\ $end
$var wire 1 r! \estado_atual~35_combout\ $end
$var wire 1 s! \estado_atual~42_combout\ $end
$var wire 1 t! \estado_atual~36_combout\ $end
$var wire 1 u! \estado_atual~37_combout\ $end
$var wire 1 v! \estado_atual~38_combout\ $end
$var wire 1 w! \estado_atual~39_combout\ $end
$var wire 1 x! \estado_atual.STANDBY_ON~0_combout\ $end
$var wire 1 y! \estado_atual.STANDBY_ON~q\ $end
$var wire 1 z! \estado_atual.S1_RED_S2_GREEN~0_combout\ $end
$var wire 1 {! \estado_atual~27_combout\ $end
$var wire 1 |! \estado_atual~23_combout\ $end
$var wire 1 }! \estado_atual~28_combout\ $end
$var wire 1 ~! \estado_atual~24_combout\ $end
$var wire 1 !" \estado_atual~40_combout\ $end
$var wire 1 "" \estado_atual~26_combout\ $end
$var wire 1 #" \estado_atual~29_combout\ $end
$var wire 1 $" \estado_atual.S1_RED_S2_GREEN~3_combout\ $end
$var wire 1 %" \estado_atual.S1_RED_S2_GREEN~q\ $end
$var wire 1 &" \estado_atual.S1_GREEN_S2_RED~0_combout\ $end
$var wire 1 '" \estado_atual.S1_GREEN_S2_RED~1_combout\ $end
$var wire 1 (" \estado_atual.S1_GREEN_S2_RED~q\ $end
$var wire 1 )" \Mux11~0_combout\ $end
$var wire 1 *" \Mux10~0_combout\ $end
$var wire 1 +" \semaforo1~0_combout\ $end
$var wire 1 ," \Mux13~0_combout\ $end
$var wire 1 -" \Mux12~0_combout\ $end
$var wire 1 ." \semaforo2~0_combout\ $end
$var wire 1 /" contador [3] $end
$var wire 1 0" contador [2] $end
$var wire 1 1" contador [1] $end
$var wire 1 2" contador [0] $end
$var wire 1 3" contador_div [24] $end
$var wire 1 4" contador_div [23] $end
$var wire 1 5" contador_div [22] $end
$var wire 1 6" contador_div [21] $end
$var wire 1 7" contador_div [20] $end
$var wire 1 8" contador_div [19] $end
$var wire 1 9" contador_div [18] $end
$var wire 1 :" contador_div [17] $end
$var wire 1 ;" contador_div [16] $end
$var wire 1 <" contador_div [15] $end
$var wire 1 =" contador_div [14] $end
$var wire 1 >" contador_div [13] $end
$var wire 1 ?" contador_div [12] $end
$var wire 1 @" contador_div [11] $end
$var wire 1 A" contador_div [10] $end
$var wire 1 B" contador_div [9] $end
$var wire 1 C" contador_div [8] $end
$var wire 1 D" contador_div [7] $end
$var wire 1 E" contador_div [6] $end
$var wire 1 F" contador_div [5] $end
$var wire 1 G" contador_div [4] $end
$var wire 1 H" contador_div [3] $end
$var wire 1 I" contador_div [2] $end
$var wire 1 J" contador_div [1] $end
$var wire 1 K" contador_div [0] $end
$var wire 1 L" \ALT_INV_semaforo1~0_combout\ $end
$upscope $end
$upscope $end
$enddefinitions $end
#0
$dumpvars
1!
0$
0+
1,
x-
1.
1/
10
11
12
13
14
05
0P
zQ
zR
zS
1T
0U
0V
1W
0X
0Y
1Z
1[
1\
1]
0^
0_
0`
1a
0b
0c
0d
1e
0f
0g
0h
0i
1j
0k
0l
0m
0n
1o
0p
0q
0r
0s
1t
0u
0v
0w
0x
1y
0z
0{
0|
0}
0~
1!!
0"!
0#!
0$!
0%!
1&!
0'!
0(!
0)!
0*!
1+!
0,!
0-!
0.!
0/!
00!
11!
02!
03!
04!
05!
06!
07!
18!
09!
0:!
0;!
0<!
1=!
0>!
0?!
0@!
0A!
0B!
0C!
0D!
0E!
0F!
0G!
0H!
1I!
0J!
0K!
1L!
0M!
0N!
0O!
0P!
0Q!
1R!
0S!
0T!
0U!
1V!
1W!
1X!
1Y!
0Z!
0[!
1\!
0]!
0^!
0_!
0`!
1a!
1b!
1c!
1d!
0e!
0f!
1g!
1h!
0i!
1j!
0k!
1l!
1m!
1n!
0o!
0p!
0q!
1r!
1s!
1t!
1u!
1v!
1w!
0x!
0y!
1z!
1{!
1|!
0}!
1~!
1!"
1""
1#"
0$"
0%"
1&"
0'"
0("
1)"
0*"
1+"
1,"
0-"
0."
0L"
1"
1#
0%
0&
1'
0(
0)
1*
16
17
08
09
1:
0;
0<
1=
0/"
00"
01"
02"
03"
04"
05"
06"
07"
08"
09"
0:"
0;"
0<"
0="
0>"
0?"
0@"
0A"
0B"
0C"
0D"
0E"
0F"
0G"
0H"
0I"
0J"
0K"
1L
1M
1N
1O
1H
1I
1J
0K
0>
0?
0@
0A
0B
0C
0D
0E
0F
0G
$end
#20000
0!
0#
1$
04
07
15
1^
0I!
0[
0O
1Q!
0R!
1S!
1e!
1f!
0s!
0|!
0)"
1*"
0,"
1-"
1X
0W
1U
0T
0""
0v!
0h!
0W!
1k!
0\
1<
0=
19
0:
0X!
0l!
0*
1)
0'
1&
0m!
0w!
0#"
0\!
1'"
1x!
#30000
1!
14
1[
1O
1\
1K"
0]
1_
1`
#40000
0!
04
0[
0O
0\
#50000
1#
17
1I!
0Q!
1R!
0S!
0e!
0f!
1s!
0x!
1|!
1)"
0*"
1,"
0-"
0X
1W
0U
1T
1""
1v!
1h!
1W!
0k!
0<
1=
09
1:
1X!
1_!
1l!
1w!
1#"
1*
0)
1'
0&
0'"
1m!
1\!
0_!
#60000
0#
0$
07
05
0^
0I!
1Q!
0R!
1S!
1e!
1f!
0s!
0|!
0)"
1*"
0,"
1-"
0K"
1X
0W
1U
0T
1]
0_
0""
0v!
0h!
0W!
1k!
1<
0=
19
0:
0X!
0l!
0`
0*
1)
0'
1&
0m!
0w!
0#"
0\!
1'"
1x!
#70000
1#
1$
1!
0"
17
06
15
14
1[
1^
0Z
1I!
1O
1O!
1R!
0S!
0e!
1s!
0x!
1|!
0*"
0+"
1,"
0-"
1L"
0X
1W
0U
1""
1h!
1W!
1v!
1V
1\
0<
1=
09
1w!
1X!
1_!
1l!
1#"
18
1*
0)
0&
1K"
1%
0'"
1m!
1\!
0]
1_
0_!
1`
#80000
0#
0$
07
05
0^
0I!
0O!
0Q!
0f!
0K"
1]
0_
0k!
0`
#90000
1#
1$
0!
17
15
04
0[
1^
1I!
0O
1O!
1Q!
1f!
1k!
0\
#100000
0#
1"
07
16
1Z
0I!
0O!
0R!
1S!
1e!
0s!
0|!
1*"
1+"
0,"
1-"
0L"
1X
0W
1U
0""
0h!
0W!
0v!
0V
1<
0=
19
0X!
0l!
08
0*
1)
1&
0%
0m!
0w!
0#"
0\!
1'"
1x!
#110000
1#
17
1I!
0Q!
1R!
0S!
0e!
0f!
1s!
0x!
1|!
1)"
0*"
1,"
0-"
0X
1W
0U
1T
1""
1v!
1h!
1W!
0k!
0<
1=
09
1:
1X!
1_!
1l!
1w!
1#"
1*
0)
1'
0&
0'"
1m!
1\!
0_!
#120000
0#
07
0I!
1Q!
0R!
1S!
1e!
1f!
0s!
0|!
0)"
1*"
0,"
1-"
1X
0W
1U
0T
0""
0v!
0h!
0W!
1k!
1<
0=
19
0:
0X!
0l!
0*
1)
0'
1&
0m!
0w!
0#"
0\!
1'"
1x!
#130000
1!
14
1[
1O
1\
1K"
0]
1_
1`
#140000
0"
06
0Z
0Q!
1R!
0S!
0e!
0f!
1s!
0x!
1|!
0*"
0+"
1,"
0-"
1L"
0X
1W
0U
1""
1v!
1h!
1W!
0k!
1V
0<
1=
09
1X!
1_!
1l!
1w!
1#"
18
1*
0)
0&
1%
0'"
1m!
1\!
0_!
#150000
0!
1#
04
17
1I!
0[
0O
1O!
1Q!
1f!
1k!
0\
#160000
1"
16
1Z
0O!
0Q!
0f!
1)"
1+"
0L"
1T
0k!
0V
1:
08
1'
0%
#170000
0"
0#
0$
07
06
05
0^
0Z
0I!
0)"
0+"
0K"
1L"
0T
1]
0_
1V
0:
0`
18
0'
1%
#180000
1!
14
1[
1O
1\
#190000
1"
1#
17
16
1Z
1I!
1)"
1+"
0L"
1T
0V
1:
08
1'
0%
#200000
0#
07
0I!
1Q!
0R!
1S!
1e!
1f!
0s!
0|!
0)"
1*"
0,"
1-"
1X
0W
1U
0T
0""
0v!
0h!
0W!
1k!
1<
0=
19
0:
0X!
0l!
0*
1)
0'
1&
0m!
0w!
0#"
0\!
1'"
1x!
#210000
1#
0"
17
06
0Z
1I!
1O!
1R!
0S!
0e!
1s!
0x!
1|!
0*"
0+"
1,"
0-"
1L"
0X
1W
0U
1""
1h!
1W!
1v!
1V
0<
1=
09
1w!
1X!
1_!
1l!
1#"
18
1*
0)
0&
1%
0'"
1m!
1\!
0_!
#220000
0#
1"
1$
07
16
15
1^
1Z
0I!
0O!
0R!
1S!
1e!
0s!
0|!
1*"
1+"
0,"
1-"
0L"
1X
0W
1U
0""
0h!
0W!
0v!
0V
1<
0=
19
0X!
0l!
08
0*
1)
1&
0%
0m!
0w!
0#"
0\!
1'"
1x!
#240000
0"
0$
06
05
0^
0Z
0Q!
1R!
0S!
0e!
0f!
1s!
0x!
1|!
0*"
0+"
1,"
0-"
1L"
0X
1W
0U
1""
1v!
1h!
1W!
0k!
1V
0<
1=
09
1X!
1_!
1l!
1w!
1#"
18
1*
0)
0&
1%
0'"
1m!
1\!
0_!
#250000
1"
1#
17
16
1Z
1I!
1)"
1+"
0L"
1T
0V
1:
08
1'
0%
#260000
0#
07
0I!
1Q!
0R!
1S!
1e!
1f!
0s!
0|!
0)"
1*"
0,"
1-"
1X
0W
1U
0T
0""
0v!
0h!
0W!
1k!
1<
0=
19
0:
0X!
0l!
0*
1)
0'
1&
0m!
0w!
0#"
0\!
1'"
1x!
#270000
1#
0"
1$
0!
17
06
15
04
0[
1^
0Z
1I!
0O
1O!
1R!
0S!
0e!
1s!
0x!
1|!
0*"
0+"
1,"
0-"
1L"
0X
1W
0U
1""
1h!
1W!
1v!
1V
0\
0<
1=
09
1w!
1X!
1_!
1l!
1#"
18
1*
0)
0&
1%
0'"
1m!
1\!
0_!
#280000
0#
1!
07
14
1[
0I!
1O
0O!
0Q!
0f!
0k!
1\
1K"
0]
1_
1`
#290000
0!
1"
04
16
1Z
0[
0O
1Q!
0R!
1S!
1e!
1f!
0s!
0|!
1*"
1+"
0,"
1-"
0L"
1X
0W
1U
0""
0v!
0h!
0W!
1k!
0V
0\
1<
0=
19
0X!
0l!
08
0*
1)
1&
0%
0m!
0w!
0#"
0\!
1'"
1x!
#300000
0"
06
0Z
0Q!
1R!
0S!
0e!
0f!
1s!
0x!
1|!
0*"
0+"
1,"
0-"
1L"
0X
1W
0U
1""
1v!
1h!
1W!
0k!
1V
0<
1=
09
1X!
1_!
1l!
1w!
1#"
18
1*
0)
0&
1%
0'"
1m!
1\!
0_!
#310000
0$
05
0^
0K"
1]
0_
0`
#320000
1$
1"
1#
15
17
16
1Z
1I!
1^
1)"
1+"
0L"
1T
0V
1:
08
1'
0%
#330000
0$
0"
0#
05
07
06
0Z
0I!
0^
0)"
0+"
1L"
0T
1V
0:
18
0'
1%
#340000
1$
1!
15
14
1[
1^
1O
1\
1K"
0]
1_
1`
#350000
1"
16
1Z
1Q!
0R!
1S!
1e!
1f!
0s!
0|!
1*"
1+"
0,"
1-"
0L"
1X
0W
1U
0""
0v!
0h!
0W!
1k!
0V
1<
0=
19
0X!
0l!
08
0*
1)
1&
0%
0m!
0w!
0#"
0\!
1'"
1x!
#360000
0"
0!
1#
17
06
04
0[
0Z
1I!
0O
1O!
1R!
0S!
0e!
1s!
0x!
1|!
0*"
0+"
1,"
0-"
1L"
0X
1W
0U
1""
1h!
1W!
1v!
1V
0\
0<
1=
09
1w!
1X!
1_!
1l!
1#"
18
1*
0)
0&
1%
0'"
1m!
1\!
0_!
#370000
1"
0$
16
05
0^
1Z
0O!
0Q!
0f!
1)"
1+"
0K"
0L"
1T
1]
0_
0k!
0V
1:
0`
08
1'
0%
#380000
0"
1$
06
15
1^
0Z
1O!
1Q!
1f!
0)"
0+"
1L"
0T
1k!
1V
0:
18
0'
1%
#390000
1"
1!
16
14
1[
1Z
1O
0O!
0Q!
0f!
1)"
1+"
0L"
1T
0k!
0V
1\
1:
08
1'
1K"
0%
0]
1_
1`
#400000
0"
0!
0#
07
06
04
0[
0Z
0I!
0O
0)"
0+"
1L"
0T
1V
0\
0:
18
0'
1%
#410000
1#
17
1I!
1O!
1Q!
1f!
1k!
#420000
0#
1"
1!
07
16
14
1[
1Z
0I!
1O
0O!
0R!
1S!
1e!
0s!
0|!
1*"
1+"
0,"
1-"
0L"
1X
0W
1U
0""
0h!
0W!
0v!
0V
1\
1<
0=
19
0X!
0l!
08
0*
1)
1&
0K"
1J"
0%
0m!
0w!
0#"
0\!
0`
0a
1]
0_
1'"
1x!
1`
1a
1b
0b
#430000
0"
0!
0$
06
04
05
0^
0[
0Z
0O
0Q!
1R!
0S!
0e!
0f!
1s!
0x!
1|!
0*"
0+"
1,"
0-"
0J"
1L"
0X
1W
0U
0`
1""
1v!
1h!
1W!
0k!
1V
0\
0<
1=
09
1X!
1_!
1l!
1w!
1#"
18
1*
0)
0&
1%
0'"
1m!
1\!
0_!
#440000
1!
1$
1#
14
15
17
1I!
1^
1[
1O
1O!
1Q!
1f!
1k!
1\
1K"
0]
1_
1`
#450000
0!
0$
1"
04
05
16
1Z
0^
0[
0O
0K"
0O!
0Q!
0f!
1)"
1+"
0L"
1T
0k!
1]
0_
0V
0\
1:
0`
08
1'
0%
#460000
1!
1$
0#
14
15
07
0I!
1^
1[
1O
1Q!
0R!
1S!
1e!
1f!
0s!
0|!
0)"
1*"
0,"
1-"
1X
0W
1U
0T
0""
0v!
0h!
0W!
1k!
1\
1<
0=
19
0:
0X!
0l!
0*
1)
0'
1&
1K"
0m!
0w!
0#"
0\!
0]
1_
1'"
1x!
1`
#470000
0!
0$
0"
04
05
06
0Z
0^
0[
0O
0K"
0Q!
1R!
0S!
0e!
0f!
1s!
0x!
1|!
0*"
0+"
1,"
0-"
1L"
0X
1W
0U
1""
1v!
1h!
1W!
0k!
1]
0_
1V
0\
0<
1=
09
0`
1X!
1_!
1l!
1w!
1#"
18
1*
0)
0&
1%
0'"
1m!
1\!
0_!
#480000
1$
1"
1#
15
17
16
1Z
1I!
1^
1)"
1+"
0L"
1T
0V
1:
08
1'
0%
#490000
0$
0#
1!
05
07
14
1[
0I!
0^
1O
1Q!
0R!
1S!
1e!
1f!
0s!
0|!
0)"
1*"
0,"
1-"
1X
0W
1U
0T
0""
0v!
0h!
0W!
1k!
1\
1<
0=
19
0:
0X!
0l!
0*
1)
0'
1&
0m!
0w!
0#"
0\!
1'"
1x!
#500000
0"
06
0Z
0Q!
1R!
0S!
0e!
0f!
1s!
0x!
1|!
0*"
0+"
1,"
0-"
1L"
0X
1W
0U
1""
1v!
1h!
1W!
0k!
1V
0<
1=
09
1X!
1_!
1l!
1w!
1#"
18
1*
0)
0&
1%
0'"
1m!
1\!
0_!
#520000
1"
1#
0!
17
16
04
0[
1Z
1I!
0O
1)"
1+"
0L"
1T
0V
0\
1:
08
1'
0%
#530000
0"
1!
1$
06
14
15
1^
1[
0Z
1O
1O!
1Q!
1f!
0)"
0+"
1L"
0T
1k!
1V
1\
0:
18
0'
1K"
1%
0]
1_
1`
#540000
0#
07
0I!
0O!
0Q!
0f!
0k!
#550000
1"
0!
0$
16
04
05
0^
0[
1Z
0O
1Q!
0R!
1S!
1e!
1f!
0s!
0|!
1*"
1+"
0,"
1-"
0K"
0L"
1X
0W
1U
1]
0_
0""
0v!
0h!
0W!
1k!
0V
0\
1<
0=
19
0X!
0l!
0`
08
0*
1)
1&
0%
0m!
0w!
0#"
0\!
1'"
1x!
#560000
0"
1!
1#
17
06
14
1[
0Z
1I!
1O
1O!
1R!
0S!
0e!
1s!
0x!
1|!
0*"
0+"
1,"
0-"
1L"
0X
1W
0U
1""
1h!
1W!
1v!
1V
1\
0<
1=
09
1w!
1X!
1_!
1l!
1#"
18
1*
0)
0&
1%
0'"
1m!
1\!
0_!
#570000
1"
0!
1$
16
04
15
1^
0[
1Z
0O
0O!
0Q!
0f!
1)"
1+"
0L"
1T
0k!
0V
0\
1:
08
1'
0%
#580000
1!
14
1[
1O
1\
1K"
0]
1_
1`
#590000
0!
0"
0$
0#
04
07
06
05
0^
0Z
0I!
0[
0O
0)"
0+"
0K"
1L"
0T
1]
0_
1V
0\
0:
0`
18
0'
1%
#600000
1$
1#
15
17
1I!
1^
1O!
1Q!
1f!
1k!
#610000
0#
07
0I!
0O!
0Q!
0f!
0k!
#620000
1#
1!
1"
17
16
14
1[
1Z
1I!
1O
1)"
1+"
0L"
1T
0V
1\
1:
08
1'
1K"
0%
0]
1_
1`
#630000
0#
0"
07
06
0Z
0I!
0)"
0+"
1L"
0T
1V
0:
18
0'
1%
#640000
1"
0!
16
04
0[
1Z
0O
1Q!
0R!
1S!
1e!
1f!
0s!
0|!
1*"
1+"
0,"
1-"
0L"
1X
0W
1U
0""
0v!
0h!
0W!
1k!
0V
0\
1<
0=
19
0X!
0l!
08
0*
1)
1&
0%
0m!
0w!
0#"
0\!
1'"
1x!
#660000
1#
17
1I!
0Q!
1R!
0S!
0e!
0f!
1s!
0x!
1|!
1)"
0*"
1,"
0-"
0X
1W
0U
1T
1""
1v!
1h!
1W!
0k!
0<
1=
09
1:
1X!
1_!
1l!
1w!
1#"
1*
0)
1'
0&
0'"
1m!
1\!
0_!
#670000
1!
14
1[
1O
1\
0K"
1J"
0`
0a
1]
0_
1`
1a
1b
0b
#680000
0#
0$
07
05
0^
0I!
1Q!
0R!
1S!
1e!
1f!
0s!
0|!
0)"
1*"
0,"
1-"
0J"
1X
0W
1U
0T
0`
0""
0v!
0h!
0W!
1k!
1<
0=
19
0:
0X!
0l!
0*
1)
0'
1&
0m!
0w!
0#"
0\!
1'"
1x!
#690000
1$
0!
0"
15
04
06
0Z
0[
1^
0O
0Q!
1R!
0S!
0e!
0f!
1s!
0x!
1|!
0*"
0+"
1,"
0-"
1L"
0X
1W
0U
1""
1v!
1h!
1W!
0k!
1V
0\
0<
1=
09
1X!
1_!
1l!
1w!
1#"
18
1*
0)
0&
1%
0'"
1m!
1\!
0_!
#700000
0$
1!
1"
1#
05
14
17
16
1Z
1I!
1[
0^
1O
1)"
1+"
0L"
1T
0V
1\
1:
08
1'
0%
#710000
0"
06
0Z
1O!
1Q!
1f!
0)"
0+"
1L"
0T
1k!
1V
0:
18
0'
1%
#720000
1"
1$
16
15
1^
1Z
0O!
0Q!
0f!
1)"
1+"
0L"
1T
0k!
0V
1:
08
1'
0%
#730000
0"
0!
0#
07
06
04
0[
0Z
0I!
0O
0)"
0+"
1L"
0T
1V
0\
0:
18
0'
1%
#740000
1#
17
1I!
1O!
1Q!
1f!
1k!
#750000
0#
1"
07
16
1Z
0I!
0O!
0R!
1S!
1e!
0s!
0|!
1*"
1+"
0,"
1-"
0L"
1X
0W
1U
0""
0h!
0W!
0v!
0V
1<
0=
19
0X!
0l!
08
0*
1)
1&
0%
0m!
0w!
0#"
0\!
1'"
1x!
#760000
1!
14
1[
1O
1\
1K"
0]
1_
1`
#770000
0$
05
0^
0K"
1]
0_
0`
#780000
1$
0!
15
04
0[
1^
0O
0\
#790000
1#
17
1I!
0Q!
1R!
0S!
0e!
0f!
1s!
0x!
1|!
1)"
0*"
1,"
0-"
0X
1W
0U
1T
1""
1v!
1h!
1W!
0k!
0<
1=
09
1:
1X!
1_!
1l!
1w!
1#"
1*
0)
1'
0&
0'"
1m!
1\!
0_!
#800000
0#
0$
07
05
0^
0I!
1Q!
0R!
1S!
1e!
1f!
0s!
0|!
0)"
1*"
0,"
1-"
1X
0W
1U
0T
0""
0v!
0h!
0W!
1k!
1<
0=
19
0:
0X!
0l!
0*
1)
0'
1&
0m!
0w!
0#"
0\!
1'"
1x!
#810000
1#
1!
17
14
1[
1I!
1O
0Q!
1R!
0S!
0e!
0f!
1s!
0x!
1|!
1)"
0*"
1,"
0-"
0X
1W
0U
1T
1""
1v!
1h!
1W!
0k!
1\
0<
1=
09
1:
1X!
1_!
1l!
1w!
1#"
1*
0)
1'
0&
0'"
1m!
1\!
0_!
#820000
0!
1$
0"
04
15
06
0Z
1^
0[
0O
1O!
1Q!
1f!
0)"
0+"
1L"
0T
1k!
1V
0\
0:
18
0'
1%
#830000
0#
07
0I!
0O!
0Q!
0f!
0k!
#840000
1#
1"
17
16
1Z
1I!
1)"
1+"
0L"
1T
0V
1:
08
1'
0%
#850000
0#
0"
1!
0$
07
06
14
05
0^
1[
0Z
0I!
1O
0)"
0+"
1L"
0T
1V
1\
0:
18
0'
1%
#860000
0!
04
0[
0O
0\
#870000
1#
1"
1$
17
16
15
1^
1Z
1I!
1)"
1+"
0L"
1T
0V
1:
08
1'
0%
