relatorio3/projeto3/simulation/qsim/projeto3.msim.vcd
$comment
	File created using the following command:
		vcd file projeto3.msim.vcd -direction
$end
$date
	Thu Dec 05 16:26:59 2024
$end
$version
	ModelSim Version 10.5b
$end
$timescale
	1ps
$end

$scope module projeto3_vhd_vec_tst $end
$var wire 1 ! SSD1 [7] $end
$var wire 1 " SSD1 [6] $end
$var wire 1 # SSD1 [5] $end
$var wire 1 $ SSD1 [4] $end
$var wire 1 % SSD1 [3] $end
$var wire 1 & SSD1 [2] $end
$var wire 1 ' SSD1 [1] $end
$var wire 1 ( SSD1 [0] $end
$var wire 1 ) SSD2 [7] $end
$var wire 1 * SSD2 [6] $end
$var wire 1 + SSD2 [5] $end
$var wire 1 , SSD2 [4] $end
$var wire 1 - SSD2 [3] $end
$var wire 1 . SSD2 [2] $end
$var wire 1 / SSD2 [1] $end
$var wire 1 0 SSD2 [0] $end
$var wire 1 1 switches1 [3] $end
$var wire 1 2 switches1 [2] $end
$var wire 1 3 switches1 [1] $end
$var wire 1 4 switches1 [0] $end
$var wire 1 5 switches2 [3] $end
$var wire 1 6 switches2 [2] $end
$var wire 1 7 switches2 [1] $end
$var wire 1 8 switches2 [0] $end

$scope module i1 $end
$var wire 1 9 gnd $end
$var wire 1 : vcc $end
$var wire 1 ; unknown $end
$var wire 1 < devoe $end
$var wire 1 = devclrn $end
$var wire 1 > devpor $end
$var wire 1 ? ww_devoe $end
$var wire 1 @ ww_devclrn $end
$var wire 1 A ww_devpor $end
$var wire 1 B ww_switches1 [3] $end
$var wire 1 C ww_switches1 [2] $end
$var wire 1 D ww_switches1 [1] $end
$var wire 1 E ww_switches1 [0] $end
$var wire 1 F ww_switches2 [3] $end
$var wire 1 G ww_switches2 [2] $end
$var wire 1 H ww_switches2 [1] $end
$var wire 1 I ww_switches2 [0] $end
$var wire 1 J ww_SSD1 [7] $end
$var wire 1 K ww_SSD1 [6] $end
$var wire 1 L ww_SSD1 [5] $end
$var wire 1 M ww_SSD1 [4] $end
$var wire 1 N ww_SSD1 [3] $end
$var wire 1 O ww_SSD1 [2] $end
$var wire 1 P ww_SSD1 [1] $end
$var wire 1 Q ww_SSD1 [0] $end
$var wire 1 R ww_SSD2 [7] $end
$var wire 1 S ww_SSD2 [6] $end
$var wire 1 T ww_SSD2 [5] $end
$var wire 1 U ww_SSD2 [4] $end
$var wire 1 V ww_SSD2 [3] $end
$var wire 1 W ww_SSD2 [2] $end
$var wire 1 X ww_SSD2 [1] $end
$var wire 1 Y ww_SSD2 [0] $end
$var wire 1 Z \~QUARTUS_CREATED_ADC1~_CHSEL_bus\ [4] $end
$var wire 1 [ \~QUARTUS_CREATED_ADC1~_CHSEL_bus\ [3] $end
$var wire 1 \ \~QUARTUS_CREATED_ADC1~_CHSEL_bus\ [2] $end
$var wire 1 ] \~QUARTUS_CREATED_ADC1~_CHSEL_bus\ [1] $end
$var wire 1 ^ \~QUARTUS_CREATED_ADC1~_CHSEL_bus\ [0] $end
$var wire 1 _ \~QUARTUS_CREATED_ADC2~_CHSEL_bus\ [4] $end
$var wire 1 ` \~QUARTUS_CREATED_ADC2~_CHSEL_bus\ [3] $end
$var wire 1 a \~QUARTUS_CREATED_ADC2~_CHSEL_bus\ [2] $end
$var wire 1 b \~QUARTUS_CREATED_ADC2~_CHSEL_bus\ [1] $end
$var wire 1 c \~QUARTUS_CREATED_ADC2~_CHSEL_bus\ [0] $end
$var wire 1 d \~QUARTUS_CREATED_GND~I_combout\ $end
$var wire 1 e \~QUARTUS_CREATED_UNVM~~busy\ $end
$var wire 1 f \~QUARTUS_CREATED_ADC1~~eoc\ $end
$var wire 1 g \~QUARTUS_CREATED_ADC2~~eoc\ $end
$var wire 1 h \SSD1[0]~output_o\ $end
$var wire 1 i \SSD1[1]~output_o\ $end
$var wire 1 j \SSD1[2]~output_o\ $end
$var wire 1 k \SSD1[3]~output_o\ $end
$var wire 1 l \SSD1[4]~output_o\ $end
$var wire 1 m \SSD1[5]~output_o\ $end
$var wire 1 n \SSD1[6]~output_o\ $end
$var wire 1 o \SSD1[7]~output_o\ $end
$var wire 1 p \SSD2[0]~output_o\ $end
$var wire 1 q \SSD2[1]~output_o\ $end
$var wire 1 r \SSD2[2]~output_o\ $end
$var wire 1 s \SSD2[3]~output_o\ $end
$var wire 1 t \SSD2[4]~output_o\ $end
$var wire 1 u \SSD2[5]~output_o\ $end
$var wire 1 v \SSD2[6]~output_o\ $end
$var wire 1 w \SSD2[7]~output_o\ $end
$var wire 1 x \switches1[0]~input_o\ $end
$var wire 1 y \switches1[1]~input_o\ $end
$var wire 1 z \switches1[2]~input_o\ $end
$var wire 1 { \switches1[3]~input_o\ $end
$var wire 1 | \Mux7~0_combout\ $end
$var wire 1 } \Mux6~0_combout\ $end
$var wire 1 ~ \Mux5~0_combout\ $end
$var wire 1 !! \Mux4~0_combout\ $end
$var wire 1 "! \Mux3~0_combout\ $end
$var wire 1 #! \Mux2~0_combout\ $end
$var wire 1 $! \Mux1~0_combout\ $end
$var wire 1 %! \Mux0~0_combout\ $end
$var wire 1 &! \switches2[2]~input_o\ $end
$var wire 1 '! \switches2[0]~input_o\ $end
$var wire 1 (! \switches2[1]~input_o\ $end
$var wire 1 )! \switches2[3]~input_o\ $end
$var wire 1 *! \Mux15~0_combout\ $end
$var wire 1 +! \Mux14~0_combout\ $end
$var wire 1 ,! \Mux13~0_combout\ $end
$var wire 1 -! \Mux12~0_combout\ $end
$var wire 1 .! \Mux11~0_combout\ $end
$var wire 1 /! \Mux10~0_combout\ $end
$var wire 1 0! \Mux9~0_combout\ $end
$var wire 1 1! \Mux8~0_combout\ $end
$var wire 1 2! \ALT_INV_Mux9~0_combout\ $end
$var wire 1 3! \ALT_INV_Mux1~0_combout\ $end
$upscope $end
$upscope $end
$enddefinitions $end
#0
$dumpvars
09
1:
x;
1<
1=
1>
1?
1@
1A
0d
ze
zf
zg
0h
0i
0j
0k
0l
0m
1n
1o
0p
0q
0r
0s
0t
0u
1v
1w
0x
0y
0z
0{
0|
0}
0~
0!!
0"!
0#!
0$!
1%!
0&!
0'!
0(!
0)!
0*!
0+!
0,!
0-!
0.!
0/!
00!
11!
12!
13!
01
02
03
04
05
06
07
08
1!
1"
0#
0$
0%
0&
0'
0(
1)
1*
0+
0,
0-
0.
0/
00
0B
0C
0D
0E
0F
0G
0H
0I
1J
1K
0L
0M
0N
0O
0P
0Q
1R
1S
0T
0U
0V
0W
0X
0Y
0Z
0[
0\
0]
0^
0_
0`
0a
0b
0c
$end
#5000
12
14
16
18
1E
1C
1I
1G
1&!
1'!
1z
1x
1}
1"!
1$!
1+!
1.!
10!
02!
03!
1t
1q
1l
1i
0n
0v
1U
1X
1M
1P
0K
0S
1/
1,
1'
1$
0"
0*
#10000
04
08
0E
0I
0'!
0x
1|
0}
1!!
1*!
0+!
1-!
1s
0q
1p
1k
0i
1h
1V
0X
1Y
1N
0P
1Q
10
0/
1-
1(
0'
1%
#15000
14
18
02
06
13
17
1E
1D
0C
1I
1H
0G
0&!
1(!
1'!
0z
1y
1x
0|
0!!
1#!
0*!
0-!
1/!
1u
0s
0p
1m
0k
0h
1T
0V
0Y
1L
0N
0Q
00
0-
1+
0(
0%
1#
#20000
04
08
0E
0I
0'!
0x
1~
0"!
1,!
0.!
0t
1r
0l
1j
0U
1W
0M
1O
1.
0,
1&
0$
#25000
14
18
12
16
11
15
1E
1C
1B
1I
1G
1F
1)!
1&!
1'!
1{
1z
1x
0~
0#!
0%!
0,!
0/!
01!
0w
0u
0r
0o
0m
0j
0R
0T
0W
0J
0L
0O
0.
0+
0)
0&
0#
0!
#30000
04
08
03
07
0E
0D
0I
0H
0(!
0'!
0y
0x
#35000
14
18
02
06
1E
0C
1I
0G
0&!
1'!
0z
1x
1"!
1%!
1.!
11!
1w
1t
1o
1l
1R
1U
1J
1M
1,
1)
1$
1!
#40000
04
08
0E
0I
0'!
0x
0"!
0.!
0t
0l
0U
0M
0,
0$
#45000
14
18
13
17
01
05
1E
1D
0B
1I
1H
0F
0)!
1(!
1'!
0{
1y
1x
1"!
1#!
1.!
1/!
1u
1t
1m
1l
1T
1U
1L
1M
1,
1+
1$
1#
#50000
11
15
1B
1F
1)!
1{
0"!
0#!
0%!
0.!
0/!
01!
0w
0u
0t
0o
0m
0l
0R
0T
0U
0J
0L
0M
0,
0+
0)
0$
0#
0!
#55000
04
08
0E
0I
0'!
0x
#60000
14
18
01
05
12
16
1E
1C
0B
1I
1G
0F
0)!
1&!
1'!
0{
1z
1x
1!!
1"!
1#!
0$!
1%!
1-!
1.!
1/!
00!
11!
12!
13!
1w
1u
1t
1s
1o
1m
1l
1k
1n
1v
1R
1T
1U
1V
1J
1L
1M
1N
1K
1S
1-
1,
1+
1)
1%
1$
1#
1!
1"
1*
#65000
02
06
0C
0G
0&!
0z
0!!
1$!
0-!
10!
02!
03!
0s
0k
0n
0v
0V
0N
0K
0S
0-
0%
0"
0*
#70000
04
08
0E
0I
0'!
0x
1~
0"!
1,!
0.!
0t
1r
0l
1j
0U
1W
0M
1O
1.
0,
1&
0$
#75000
14
18
11
15
1E
1B
1I
1F
1)!
1'!
1{
1x
0~
0#!
0%!
0,!
0/!
01!
0w
0u
0r
0o
0m
0j
0R
0T
0W
0J
0L
0O
0.
0+
0)
0&
0#
0!
#80000
04
08
01
05
03
07
0E
0D
0B
0I
0H
0F
0)!
0(!
0'!
0{
0y
0x
0$!
1%!
00!
11!
12!
13!
1w
1o
1n
1v
1R
1J
1K
1S
1)
1!
1"
1*
#85000
11
15
13
17
1D
1B
1H
1F
1)!
1(!
1{
1y
1$!
0%!
10!
01!
02!
03!
0w
0o
0n
0v
0R
0J
0K
0S
0)
0!
0"
0*
#90000
01
05
0B
0F
0)!
0{
1~
1#!
1%!
1,!
1/!
11!
1w
1u
1r
1o
1m
1j
1R
1T
1W
1J
1L
1O
1.
1+
1)
1&
1#
1!
#100000
11
15
14
18
1E
1B
1I
1F
1)!
1'!
1{
1x
0~
0#!
0%!
0,!
0/!
01!
0w
0u
0r
0o
0m
0j
0R
0T
0W
0J
0L
0O
0.
0+
0)
0&
0#
0!
#105000
01
05
04
08
03
07
12
16
0E
0D
1C
0B
0I
0H
1G
0F
0)!
1&!
0(!
0'!
0{
1z
0y
0x
1|
1!!
1"!
1%!
1*!
1-!
1.!
11!
1w
1t
1s
1p
1o
1l
1k
1h
1R
1U
1V
1Y
1J
1M
1N
1Q
10
1-
1,
1)
1(
1%
1$
1!
#110000
02
06
0C
0G
0&!
0z
0|
0!!
0"!
0$!
0*!
0-!
0.!
00!
12!
13!
0t
0s
0p
0l
0k
0h
1n
1v
0U
0V
0Y
0M
0N
0Q
1K
1S
00
0-
0,
0(
0%
0$
1"
1*
#115000
14
18
1E
1I
1'!
1x
1|
1!!
1"!
1#!
1*!
1-!
1.!
1/!
1u
1t
1s
1p
1m
1l
1k
1h
1T
1U
1V
1Y
1L
1M
1N
1Q
10
1-
1,
1+
1(
1%
1$
1#
#120000
04
08
11
15
0E
1B
0I
1F
1)!
0'!
1{
0x
0|
0!!
0"!
0#!
1$!
0*!
0-!
0.!
0/!
10!
02!
03!
0u
0t
0s
0p
0m
0l
0k
0h
0n
0v
0T
0U
0V
0Y
0L
0M
0N
0Q
0K
0S
00
0-
0,
0+
0(
0%
0$
0#
0"
0*
#125000
12
16
1C
1G
1&!
1z
0%!
01!
0w
0o
0R
0J
0)
0!
#130000
02
06
01
05
0C
0B
0G
0F
0)!
0&!
0{
0z
0$!
1%!
00!
11!
12!
13!
1w
1o
1n
1v
1R
1J
1K
1S
1)
1!
1"
1*
#135000
11
15
14
18
1E
1B
1I
1F
1)!
1'!
1{
1x
1"!
1$!
1.!
10!
02!
03!
1t
1l
0n
0v
1U
1M
0K
0S
1,
1$
0"
0*
#140000
04
08
12
16
13
17
0E
1D
1C
0I
1H
1G
1&!
1(!
0'!
1z
1y
0x
0"!
0%!
0.!
01!
0w
0t
0o
0l
0R
0U
0J
0M
0,
0)
0$
0!
#145000
14
18
02
06
03
07
1E
0D
0C
1I
0H
0G
0&!
0(!
1'!
0z
0y
1x
1"!
1%!
1.!
11!
1w
1t
1o
1l
1R
1U
1J
1M
1,
1)
1$
1!
#150000
12
16
1C
1G
1&!
1z
0"!
0%!
0.!
01!
0w
0t
0o
0l
0R
0U
0J
0M
0,
0)
0$
0!
#155000
02
06
04
08
01
05
0E
0C
0B
0I
0G
0F
0)!
0&!
0'!
0{
0z
0x
0$!
1%!
00!
11!
12!
13!
1w
1o
1n
1v
1R
1J
1K
1S
1)
1!
1"
1*
#160000
12
16
14
18
11
15
1E
1C
1B
1I
1G
1F
1)!
1&!
1'!
1{
1z
1x
1$!
0%!
10!
01!
02!
03!
0w
0o
0n
0v
0R
0J
0K
0S
0)
0!
0"
0*
#165000
02
06
04
08
13
17
0E
1D
0C
0I
1H
0G
0&!
1(!
0'!
0z
1y
0x
#170000
12
16
14
18
03
07
1E
0D
1C
1I
0H
1G
1&!
0(!
1'!
1z
0y
1x
#175000
02
06
13
17
1D
0C
1H
0G
0&!
1(!
0z
1y
#180000
12
16
01
05
1C
0B
1G
0F
0)!
1&!
0{
1z
1!!
1"!
1#!
0$!
1%!
1-!
1.!
1/!
00!
11!
12!
13!
1w
1u
1t
1s
1o
1m
1l
1k
1n
1v
1R
1T
1U
1V
1J
1L
1M
1N
1K
1S
1-
1,
1+
1)
1%
1$
1#
1!
1"
1*
#185000
04
08
0E
0I
0'!
0x
1}
0!!
0"!
0#!
1$!
1+!
0-!
0.!
0/!
10!
02!
03!
0u
0t
0s
1q
0m
0l
0k
1i
0n
0v
0T
0U
0V
1X
0L
0M
0N
1P
0K
0S
1/
0-
0,
0+
1'
0%
0$
0#
0"
0*
#190000
14
18
02
06
03
07
1E
0D
0C
1I
0H
0G
0&!
0(!
1'!
0z
0y
1x
1|
0}
1!!
1"!
1#!
0$!
1*!
0+!
1-!
1.!
1/!
00!
12!
13!
1u
1t
1s
0q
1p
1m
1l
1k
0i
1h
1n
1v
1T
1U
1V
0X
1Y
1L
1M
1N
0P
1Q
1K
1S
10
0/
1-
1,
1+
1(
0'
1%
1$
1#
1"
1*
#195000
04
08
13
17
11
15
0E
1D
1B
0I
1H
1F
1)!
1(!
0'!
1{
1y
0x
0|
0!!
0"!
0#!
1$!
0%!
0*!
0-!
0.!
0/!
10!
01!
02!
03!
0w
0u
0t
0s
0p
0o
0m
0l
0k
0h
0n
0v
0R
0T
0U
0V
0Y
0J
0L
0M
0N
0Q
0K
0S
00
0-
0,
0+
0)
0(
0%
0$
0#
0!
0"
0*
#200000
12
16
1C
1G
1&!
1z
#205000
02
06
14
18
1E
0C
1I
0G
0&!
1'!
0z
1x
#210000
12
16
1C
1G
1&!
1z
#215000
02
06
0C
0G
0&!
0z
#220000
12
16
03
07
0D
1C
0H
1G
1&!
0(!
1z
0y
#225000
13
17
1D
1H
1(!
1y
#230000
03
07
01
05
0D
0B
0H
0F
0)!
0(!
0{
0y
1}
1"!
1%!
1+!
1.!
11!
1w
1t
1q
1o
1l
1i
1R
1U
1X
1J
1M
1P
1/
1,
1)
1'
1$
1!
#235000
13
17
11
15
1D
1B
1H
1F
1)!
1(!
1{
1y
0}
0"!
0%!
0+!
0.!
01!
0w
0t
0q
0o
0l
0i
0R
0U
0X
0J
0M
0P
0/
0,
0)
0'
0$
0!
#240000
01
05
04
08
0E
0B
0I
0F
0)!
0'!
0{
0x
1}
1%!
1+!
11!
1w
1q
1o
1i
1R
1X
1J
1P
1/
1)
1'
1!
#245000
11
15
02
06
0C
1B
0G
1F
1)!
0&!
1{
0z
0}
0%!
0+!
01!
0w
0q
0o
0i
0R
0X
0J
0P
0/
0)
0'
0!
#250000
01
05
14
18
1E
0B
1I
0F
0)!
1'!
0{
1x
1"!
1#!
1%!
1.!
1/!
11!
1w
1u
1t
1o
1m
1l
1R
1T
1U
1J
1L
1M
1,
1+
1)
1$
1#
1!
#255000
11
15
1B
1F
1)!
1{
0"!
0#!
0%!
0.!
0/!
01!
0w
0u
0t
0o
0m
0l
0R
0T
0U
0J
0L
0M
0,
0+
0)
0$
0#
0!
#260000
03
07
0D
0H
0(!
0y
1"!
1%!
1.!
11!
1w
1t
1o
1l
1R
1U
1J
1M
1,
1)
1$
1!
#265000
13
17
1D
1H
1(!
1y
0"!
0%!
0.!
01!
0w
0t
0o
0l
0R
0U
0J
0M
0,
0)
0$
0!
#270000
03
07
01
05
0D
0B
0H
0F
0)!
0(!
0{
0y
1|
1!!
1"!
1#!
0$!
1%!
1*!
1-!
1.!
1/!
00!
11!
12!
13!
1w
1u
1t
1s
1p
1o
1m
1l
1k
1h
1n
1v
1R
1T
1U
1V
1Y
1J
1L
1M
1N
1Q
1K
1S
10
1-
1,
1+
1)
1(
1%
1$
1#
1!
1"
1*
#275000
13
17
04
08
12
16
0E
1D
1C
0I
1H
1G
1&!
1(!
0'!
1z
1y
0x
0|
1}
0!!
0"!
0#!
1$!
0*!
1+!
0-!
0.!
0/!
10!
02!
03!
0u
0t
0s
1q
0p
0m
0l
0k
1i
0h
0n
0v
0T
0U
0V
1X
0Y
0L
0M
0N
1P
0Q
0K
0S
00
1/
0-
0,
0+
0(
1'
0%
0$
0#
0"
0*
#280000
02
06
11
15
0C
1B
0G
1F
1)!
0&!
1{
0z
0}
0%!
0+!
01!
0w
0q
0o
0i
0R
0X
0J
0P
0/
0)
0'
0!
#285000
01
05
0B
0F
0)!
0{
1~
1#!
1%!
1,!
1/!
11!
1w
1u
1r
1o
1m
1j
1R
1T
1W
1J
1L
1O
1.
1+
1)
1&
1#
1!
#290000
12
16
1C
1G
1&!
1z
1}
0~
0#!
1+!
0,!
0/!
0u
0r
1q
0m
0j
1i
0T
0W
1X
0L
0O
1P
1/
0.
0+
1'
0&
0#
#295000
02
06
0C
0G
0&!
0z
0}
1~
1#!
0+!
1,!
1/!
1u
1r
0q
1m
1j
0i
1T
1W
0X
1L
1O
0P
0/
1.
1+
0'
1&
1#
#300000
12
16
11
15
03
07
0D
1C
1B
0H
1G
1F
1)!
1&!
0(!
1{
1z
0y
0~
0#!
0%!
0,!
0/!
01!
0w
0u
0r
0o
0m
0j
0R
0T
0W
0J
0L
0O
0.
0+
0)
0&
0#
0!
#305000
13
17
14
18
1E
1D
1I
1H
1(!
1'!
1y
1x
#310000
04
08
01
05
0E
0B
0I
0F
0)!
0'!
0{
0x
1}
1%!
1+!
11!
1w
1q
1o
1i
1R
1X
1J
1P
1/
1)
1'
1!
#315000
14
18
03
07
02
06
1E
0D
0C
1I
0H
0G
0&!
0(!
1'!
0z
0y
1x
1|
0}
1!!
1"!
1#!
0$!
1*!
0+!
1-!
1.!
1/!
00!
12!
13!
1u
1t
1s
0q
1p
1m
1l
1k
0i
1h
1n
1v
1T
1U
1V
0X
1Y
1L
1M
1N
0P
1Q
1K
1S
10
0/
1-
1,
1+
1(
0'
1%
1$
1#
1"
1*
#320000
13
17
12
16
1D
1C
1H
1G
1&!
1(!
1z
1y
0|
0*!
0p
0h
0Y
0Q
00
0(
#325000
11
15
1B
1F
1)!
1{
0!!
0"!
0#!
1$!
0%!
0-!
0.!
0/!
10!
01!
02!
03!
0w
0u
0t
0s
0o
0m
0l
0k
0n
0v
0R
0T
0U
0V
0J
0L
0M
0N
0K
0S
0-
0,
0+
0)
0%
0$
0#
0!
0"
0*
#330000
03
07
02
06
04
08
0E
0D
0C
0I
0H
0G
0&!
0(!
0'!
0z
0y
0x
1%!
11!
1w
1o
1R
1J
1)
1!
#335000
12
16
1C
1G
1&!
1z
0%!
01!
0w
0o
0R
0J
0)
0!
#345000
13
17
01
05
1D
0B
1H
0F
0)!
1(!
0{
1y
1}
1%!
1+!
11!
1w
1q
1o
1i
1R
1X
1J
1P
1/
1)
1'
1!
#355000
03
07
02
06
0D
0C
0H
0G
0&!
0(!
0z
0y
0}
0$!
0+!
00!
12!
13!
0q
0i
1n
1v
0X
0P
1K
1S
0/
0'
1"
1*
#360000
12
16
14
18
1E
1C
1I
1G
1&!
1'!
1z
1x
1}
1"!
1$!
1+!
1.!
10!
02!
03!
1t
1q
1l
1i
0n
0v
1U
1X
1M
1P
0K
0S
1/
1,
1'
1$
0"
0*
#370000
02
06
04
08
0E
0C
0I
0G
0&!
0'!
0z
0x
0}
0"!
0$!
0+!
0.!
00!
12!
13!
0t
0q
0l
0i
1n
1v
0U
0X
0M
0P
1K
1S
0/
0,
0'
0$
1"
1*
#375000
11
15
1B
1F
1)!
1{
1$!
10!
02!
03!
0n
0v
0K
0S
0"
0*
#380000
14
18
1E
1I
1'!
1x
1"!
1.!
1t
1l
1U
1M
1,
1$
#385000
01
05
13
17
1D
0B
1H
0F
0)!
1(!
0{
1y
1#!
1/!
1u
1m
1T
1L
1+
1#
#395000
12
16
1C
1G
1&!
1z
1!!
0$!
1-!
00!
12!
13!
1s
1k
1n
1v
1V
1N
1K
1S
1-
1%
1"
1*
#400000
11
15
04
08
0E
1B
0I
1F
1)!
0'!
1{
0x
0!!
0"!
0#!
1$!
0%!
0-!
0.!
0/!
10!
01!
02!
03!
0w
0u
0t
0s
0o
0m
0l
0k
0n
0v
0R
0T
0U
0V
0J
0L
0M
0N
0K
0S
0-
0,
0+
0)
0%
0$
0#
0!
0"
0*
#405000
02
06
03
07
0D
0C
0H
0G
0&!
0(!
0z
0y
1%!
11!
1w
1o
1R
1J
1)
1!
#410000
12
16
13
17
1D
1C
1H
1G
1&!
1(!
1z
1y
0%!
01!
0w
0o
0R
0J
0)
0!
#415000
02
06
03
07
14
18
1E
0D
0C
1I
0H
0G
0&!
0(!
1'!
0z
0y
1x
1"!
1%!
1.!
11!
1w
1t
1o
1l
1R
1U
1J
1M
1,
1)
1$
1!
#420000
12
16
01
05
1C
0B
1G
0F
0)!
1&!
0{
1z
1}
1+!
1q
1i
1X
1P
1/
1'
#425000
11
15
04
08
0E
1B
0I
1F
1)!
0'!
1{
0x
0}
0"!
0%!
0+!
0.!
01!
0w
0t
0q
0o
0l
0i
0R
0U
0X
0J
0M
0P
0/
0,
0)
0'
0$
0!
#430000
02
06
13
17
1D
0C
1H
0G
0&!
1(!
0z
1y
#435000
03
07
01
05
14
18
1E
0D
0B
1I
0H
0F
0)!
0(!
1'!
0{
0y
1x
1|
1!!
1"!
1#!
0$!
1%!
1*!
1-!
1.!
1/!
00!
11!
12!
13!
1w
1u
1t
1s
1p
1o
1m
1l
1k
1h
1n
1v
1R
1T
1U
1V
1Y
1J
1L
1M
1N
1Q
1K
1S
10
1-
1,
1+
1)
1(
1%
1$
1#
1!
1"
1*
#440000
04
08
12
16
0E
1C
0I
1G
1&!
0'!
1z
0x
0#!
1$!
0/!
10!
02!
03!
0u
0m
0n
0v
0T
0L
0K
0S
0+
0#
0"
0*
#445000
14
18
13
17
1E
1D
1I
1H
1(!
1'!
1y
1x
0|
1#!
0$!
0*!
1/!
00!
12!
13!
1u
0p
1m
0h
1n
1v
1T
0Y
1L
0Q
1K
1S
00
1+
0(
1#
1"
1*
#450000
04
08
02
06
11
15
0E
0C
1B
0I
0G
1F
1)!
0&!
0'!
1{
0z
0x
0!!
0"!
0#!
1$!
0%!
0-!
0.!
0/!
10!
01!
02!
03!
0w
0u
0t
0s
0o
0m
0l
0k
0n
0v
0R
0T
0U
0V
0J
0L
0M
0N
0K
0S
0-
0,
0+
0)
0%
0$
0#
0!
0"
0*
#455000
01
05
03
07
0D
0B
0H
0F
0)!
0(!
0{
0y
0$!
1%!
00!
11!
12!
13!
1w
1o
1n
1v
1R
1J
1K
1S
1)
1!
1"
1*
#460000
11
15
13
17
1D
1B
1H
1F
1)!
1(!
1{
1y
1$!
0%!
10!
01!
02!
03!
0w
0o
0n
0v
0R
0J
0K
0S
0)
0!
0"
0*
#465000
01
05
14
18
12
16
1E
1C
0B
1I
1G
0F
0)!
1&!
1'!
0{
1z
1x
1!!
1"!
1#!
0$!
1%!
1-!
1.!
1/!
00!
11!
12!
13!
1w
1u
1t
1s
1o
1m
1l
1k
1n
1v
1R
1T
1U
1V
1J
1L
1M
1N
1K
1S
1-
1,
1+
1)
1%
1$
1#
1!
1"
1*
#470000
11
15
04
08
03
07
0E
0D
1B
0I
0H
1F
1)!
0(!
0'!
1{
0y
0x
0!!
0"!
0#!
1$!
0%!
0-!
0.!
0/!
10!
01!
02!
03!
0w
0u
0t
0s
0o
0m
0l
0k
0n
0v
0R
0T
0U
0V
0J
0L
0M
0N
0K
0S
0-
0,
0+
0)
0%
0$
0#
0!
0"
0*
#475000
14
18
13
17
02
06
1E
1D
0C
1I
1H
0G
0&!
1(!
1'!
0z
1y
1x
#480000
04
08
03
07
01
05
0E
0D
0B
0I
0H
0F
0)!
0(!
0'!
0{
0y
0x
0$!
1%!
00!
11!
12!
13!
1w
1o
1n
1v
1R
1J
1K
1S
1)
1!
1"
1*
#485000
14
18
1E
1I
1'!
1x
1|
1!!
1"!
1#!
1*!
1-!
1.!
1/!
1u
1t
1s
1p
1m
1l
1k
1h
1T
1U
1V
1Y
1L
1M
1N
1Q
10
1-
1,
1+
1(
1%
1$
1#
#490000
04
08
11
15
12
16
0E
1C
1B
0I
1G
1F
1)!
1&!
0'!
1{
1z
0x
0|
0!!
0"!
0#!
1$!
0%!
0*!
0-!
0.!
0/!
10!
01!
02!
03!
0w
0u
0t
0s
0p
0o
0m
0l
0k
0h
0n
0v
0R
0T
0U
0V
0Y
0J
0L
0M
0N
0Q
0K
0S
00
0-
0,
0+
0)
0(
0%
0$
0#
0!
0"
0*
#495000
02
06
0C
0G
0&!
0z
1%!
11!
1w
1o
1R
1J
1)
1!
#500000
12
16
13
17
1D
1C
1H
1G
1&!
1(!
1z
1y
0%!
01!
0w
0o
0R
0J
0)
0!
#505000
01
05
0B
0F
0)!
0{
1}
1%!
1+!
11!
1w
1q
1o
1i
1R
1X
1J
1P
1/
1)
1'
1!
#510000
02
06
03
07
14
18
1E
0D
0C
1I
0H
0G
0&!
0(!
1'!
0z
0y
1x
1|
0}
1!!
1"!
1#!
0$!
1*!
0+!
1-!
1.!
1/!
00!
12!
13!
1u
1t
1s
0q
1p
1m
1l
1k
0i
1h
1n
1v
1T
1U
1V
0X
1Y
1L
1M
1N
0P
1Q
1K
1S
10
0/
1-
1,
1+
1(
0'
1%
1$
1#
1"
1*
#515000
12
16
13
17
11
15
1D
1C
1B
1H
1G
1F
1)!
1&!
1(!
1{
1z
1y
0|
0!!
0"!
0#!
1$!
0%!
0*!
0-!
0.!
0/!
10!
01!
02!
03!
0w
0u
0t
0s
0p
0o
0m
0l
0k
0h
0n
0v
0R
0T
0U
0V
0Y
0J
0L
0M
0N
0Q
0K
0S
00
0-
0,
0+
0)
0(
0%
0$
0#
0!
0"
0*
#520000
02
06
03
07
01
05
04
08
0E
0D
0C
0B
0I
0H
0G
0F
0)!
0&!
0(!
0'!
0{
0z
0y
0x
0$!
1%!
00!
11!
12!
13!
1w
1o
1n
1v
1R
1J
1K
1S
1)
1!
1"
1*
#525000
13
17
1D
1H
1(!
1y
1~
1#!
1$!
1,!
1/!
10!
02!
03!
1u
1r
1m
1j
0n
0v
1T
1W
1L
1O
0K
0S
1.
1+
1&
1#
0"
0*
#530000
03
07
11
15
14
18
1E
0D
1B
1I
0H
1F
1)!
0(!
1'!
1{
0y
1x
0~
1"!
0#!
0,!
1.!
0/!
0u
1t
0r
0m
1l
0j
0T
1U
0W
0L
1M
0O
0.
1,
0+
0&
1$
0#
#535000
01
05
0B
0F
0)!
0{
1|
1!!
1#!
0$!
1*!
1-!
1/!
00!
12!
13!
1u
1s
1p
1m
1k
1h
1n
1v
1T
1V
1Y
1L
1N
1Q
1K
1S
10
1-
1+
1(
1%
1#
1"
1*
#540000
13
17
1D
1H
1(!
1y
0|
0!!
1$!
0*!
0-!
10!
02!
03!
0s
0p
0k
0h
0n
0v
0V
0Y
0N
0Q
0K
0S
00
0-
0(
0%
0"
0*
#545000
03
07
11
15
04
08
0E
0D
1B
0I
0H
1F
1)!
0(!
0'!
1{
0y
0x
0"!
0#!
0.!
0/!
0u
0t
0m
0l
0T
0U
0L
0M
0,
0+
0$
0#
#550000
14
18
12
16
1E
1C
1I
1G
1&!
1'!
1z
1x
0%!
01!
0w
0o
0R
0J
0)
0!
#555000
02
06
13
17
1D
0C
1H
0G
0&!
1(!
0z
1y
#560000
03
07
04
08
01
05
0E
0D
0B
0I
0H
0F
0)!
0(!
0'!
0{
0y
0x
0$!
1%!
00!
11!
12!
13!
1w
1o
1n
1v
1R
1J
1K
1S
1)
1!
1"
1*
#565000
14
18
11
15
1E
1B
1I
1F
1)!
1'!
1{
1x
1"!
1$!
1.!
10!
02!
03!
1t
1l
0n
0v
1U
1M
0K
0S
1,
1$
0"
0*
#570000
13
17
12
16
1D
1C
1H
1G
1&!
1(!
1z
1y
0"!
0%!
0.!
01!
0w
0t
0o
0l
0R
0U
0J
0M
0,
0)
0$
0!
#575000
03
07
04
08
0E
0D
0I
0H
0(!
0'!
0y
0x
#580000
13
17
02
06
01
05
1D
0C
0B
1H
0G
0F
0)!
0&!
1(!
0{
0z
1y
1~
1#!
1%!
1,!
1/!
11!
1w
1u
1r
1o
1m
1j
1R
1T
1W
1J
1L
1O
1.
1+
1)
1&
1#
1!
#585000
14
18
1E
1I
1'!
1x
0~
1"!
0,!
1.!
1t
0r
1l
0j
1U
0W
1M
0O
0.
1,
0&
1$
#590000
12
16
11
15
1C
1B
1G
1F
1)!
1&!
1{
1z
0"!
0#!
0%!
0.!
0/!
01!
0w
0u
0t
0o
0m
0l
0R
0T
0U
0J
0L
0M
0,
0+
0)
0$
0#
0!
#595000
02
06
04
08
0E
0C
0I
0G
0&!
0'!
0z
0x
