relatorio5/testes/testeMk2/simulation/qsim/LuzesPiscando.msim.vcd
$comment
	File created using the following command:
		vcd file LuzesPiscando.msim.vcd -direction
$end
$date
	Thu Dec 19 13:44:16 2024
$end
$version
	ModelSim Version 10.5b
$end
$timescale
	1ps
$end

$scope module luzespiscando_vhd_vec_tst $end
$var wire 1 ! botaoReset $end
$var wire 1 " botaoVelocidade $end
$var wire 1 # clock $end
$var wire 1 $ enable $end
$var wire 1 % LEDs [9] $end
$var wire 1 & LEDs [8] $end
$var wire 1 ' LEDs [7] $end
$var wire 1 ( LEDs [6] $end
$var wire 1 ) LEDs [5] $end
$var wire 1 * LEDs [4] $end
$var wire 1 + LEDs [3] $end
$var wire 1 , LEDs [2] $end
$var wire 1 - LEDs [1] $end
$var wire 1 . LEDs [0] $end

$scope module i1 $end
$var wire 1 / gnd $end
$var wire 1 0 vcc $end
$var wire 1 1 unknown $end
$var wire 1 2 devoe $end
$var wire 1 3 devclrn $end
$var wire 1 4 devpor $end
$var wire 1 5 ww_devoe $end
$var wire 1 6 ww_devclrn $end
$var wire 1 7 ww_devpor $end
$var wire 1 8 ww_clock $end
$var wire 1 9 ww_enable $end
$var wire 1 : ww_botaoVelocidade $end
$var wire 1 ; ww_botaoReset $end
$var wire 1 < ww_LEDs [9] $end
$var wire 1 = ww_LEDs [8] $end
$var wire 1 > ww_LEDs [7] $end
$var wire 1 ? ww_LEDs [6] $end
$var wire 1 @ ww_LEDs [5] $end
$var wire 1 A ww_LEDs [4] $end
$var wire 1 B ww_LEDs [3] $end
$var wire 1 C ww_LEDs [2] $end
$var wire 1 D ww_LEDs [1] $end
$var wire 1 E ww_LEDs [0] $end
$var wire 1 F \~QUARTUS_CREATED_ADC1~_CHSEL_bus\ [4] $end
$var wire 1 G \~QUARTUS_CREATED_ADC1~_CHSEL_bus\ [3] $end
$var wire 1 H \~QUARTUS_CREATED_ADC1~_CHSEL_bus\ [2] $end
$var wire 1 I \~QUARTUS_CREATED_ADC1~_CHSEL_bus\ [1] $end
$var wire 1 J \~QUARTUS_CREATED_ADC1~_CHSEL_bus\ [0] $end
$var wire 1 K \~QUARTUS_CREATED_ADC2~_CHSEL_bus\ [4] $end
$var wire 1 L \~QUARTUS_CREATED_ADC2~_CHSEL_bus\ [3] $end
$var wire 1 M \~QUARTUS_CREATED_ADC2~_CHSEL_bus\ [2] $end
$var wire 1 N \~QUARTUS_CREATED_ADC2~_CHSEL_bus\ [1] $end
$var wire 1 O \~QUARTUS_CREATED_ADC2~_CHSEL_bus\ [0] $end
$var wire 1 P \clock~inputclkctrl_INCLK_bus\ [3] $end
$var wire 1 Q \clock~inputclkctrl_INCLK_bus\ [2] $end
$var wire 1 R \clock~inputclkctrl_INCLK_bus\ [1] $end
$var wire 1 S \clock~inputclkctrl_INCLK_bus\ [0] $end
$var wire 1 T \~QUARTUS_CREATED_GND~I_combout\ $end
$var wire 1 U \~QUARTUS_CREATED_UNVM~~busy\ $end
$var wire 1 V \~QUARTUS_CREATED_ADC1~~eoc\ $end
$var wire 1 W \~QUARTUS_CREATED_ADC2~~eoc\ $end
$var wire 1 X \LEDs[0]~output_o\ $end
$var wire 1 Y \LEDs[1]~output_o\ $end
$var wire 1 Z \LEDs[2]~output_o\ $end
$var wire 1 [ \LEDs[3]~output_o\ $end
$var wire 1 \ \LEDs[4]~output_o\ $end
$var wire 1 ] \LEDs[5]~output_o\ $end
$var wire 1 ^ \LEDs[6]~output_o\ $end
$var wire 1 _ \LEDs[7]~output_o\ $end
$var wire 1 ` \LEDs[8]~output_o\ $end
$var wire 1 a \LEDs[9]~output_o\ $end
$var wire 1 b \clock~input_o\ $end
$var wire 1 c \clock~inputclkctrl_outclk\ $end
$var wire 1 d \botaoReset~input_o\ $end
$var wire 1 e \botaoResetPrev~feeder_combout\ $end
$var wire 1 f \botaoResetPrev~q\ $end
$var wire 1 g \resetAtivado~0_combout\ $end
$var wire 1 h \resetAtivado~q\ $end
$var wire 1 i \enable~input_o\ $end
$var wire 1 j \pausado~0_combout\ $end
$var wire 1 k \pausado~1_combout\ $end
$var wire 1 l \pausado~q\ $end
$var wire 1 m \contador[0]~32_combout\ $end
$var wire 1 n \contador[19]~96_combout\ $end
$var wire 1 o \contador[0]~33\ $end
$var wire 1 p \contador[1]~34_combout\ $end
$var wire 1 q \contador[1]~35\ $end
$var wire 1 r \contador[2]~36_combout\ $end
$var wire 1 s \contador[2]~37\ $end
$var wire 1 t \contador[3]~38_combout\ $end
$var wire 1 u \contador[3]~39\ $end
$var wire 1 v \contador[4]~40_combout\ $end
$var wire 1 w \contador[4]~41\ $end
$var wire 1 x \contador[5]~42_combout\ $end
$var wire 1 y \contador[5]~43\ $end
$var wire 1 z \contador[6]~44_combout\ $end
$var wire 1 { \contador[6]~45\ $end
$var wire 1 | \contador[7]~46_combout\ $end
$var wire 1 } \contador[7]~47\ $end
$var wire 1 ~ \contador[8]~48_combout\ $end
$var wire 1 !! \contador[8]~49\ $end
$var wire 1 "! \contador[9]~50_combout\ $end
$var wire 1 #! \contador[9]~51\ $end
$var wire 1 $! \contador[10]~52_combout\ $end
$var wire 1 %! \contador[10]~53\ $end
$var wire 1 &! \contador[11]~54_combout\ $end
$var wire 1 '! \contador[11]~55\ $end
$var wire 1 (! \contador[12]~56_combout\ $end
$var wire 1 )! \contador[12]~57\ $end
$var wire 1 *! \contador[13]~58_combout\ $end
$var wire 1 +! \contador[13]~59\ $end
$var wire 1 ,! \contador[14]~60_combout\ $end
$var wire 1 -! \contador[14]~61\ $end
$var wire 1 .! \contador[15]~62_combout\ $end
$var wire 1 /! \contador[15]~63\ $end
$var wire 1 0! \contador[16]~64_combout\ $end
$var wire 1 1! \contador[16]~65\ $end
$var wire 1 2! \contador[17]~66_combout\ $end
$var wire 1 3! \contador[17]~67\ $end
$var wire 1 4! \contador[18]~68_combout\ $end
$var wire 1 5! \contador[18]~69\ $end
$var wire 1 6! \contador[19]~70_combout\ $end
$var wire 1 7! \velocidade~2_combout\ $end
$var wire 1 8! \botaoVelocidade~input_o\ $end
$var wire 1 9! \botaoVelocidadePrev~0_combout\ $end
$var wire 1 :! \botaoVelocidadePrev~q\ $end
$var wire 1 ;! \velocidade[0]~1_combout\ $end
$var wire 1 <! \velocidade~0_combout\ $end
$var wire 1 =! \contador[19]~71\ $end
$var wire 1 >! \contador[20]~72_combout\ $end
$var wire 1 ?! \contador[20]~73\ $end
$var wire 1 @! \contador[21]~74_combout\ $end
$var wire 1 A! \contador[21]~75\ $end
$var wire 1 B! \contador[22]~76_combout\ $end
$var wire 1 C! \contador[22]~77\ $end
$var wire 1 D! \contador[23]~78_combout\ $end
$var wire 1 E! \LessThan1~29_combout\ $end
$var wire 1 F! \LessThan1~28_combout\ $end
$var wire 1 G! \LessThan1~33_combout\ $end
$var wire 1 H! \LessThan1~30_combout\ $end
$var wire 1 I! \LessThan1~5_combout\ $end
$var wire 1 J! \LessThan1~6_combout\ $end
$var wire 1 K! \LessThan1~7_combout\ $end
$var wire 1 L! \LessThan1~31_combout\ $end
$var wire 1 M! \contador[23]~79\ $end
$var wire 1 N! \contador[24]~80_combout\ $end
$var wire 1 O! \contador[24]~81\ $end
$var wire 1 P! \contador[25]~82_combout\ $end
$var wire 1 Q! \contador[25]~83\ $end
$var wire 1 R! \contador[26]~84_combout\ $end
$var wire 1 S! \contador[26]~85\ $end
$var wire 1 T! \contador[27]~86_combout\ $end
$var wire 1 U! \contador[27]~87\ $end
$var wire 1 V! \contador[28]~88_combout\ $end
$var wire 1 W! \contador[28]~89\ $end
$var wire 1 X! \contador[29]~90_combout\ $end
$var wire 1 Y! \contador[29]~91\ $end
$var wire 1 Z! \contador[30]~92_combout\ $end
$var wire 1 [! \contador[30]~93\ $end
$var wire 1 \! \contador[31]~94_combout\ $end
$var wire 1 ]! \LessThan1~2_combout\ $end
$var wire 1 ^! \LessThan1~3_combout\ $end
$var wire 1 _! \LessThan1~4_combout\ $end
$var wire 1 `! \LessThan1~24_combout\ $end
$var wire 1 a! \LessThan1~25_combout\ $end
$var wire 1 b! \LessThan1~22_combout\ $end
$var wire 1 c! \LessThan1~23_combout\ $end
$var wire 1 d! \LessThan1~15_combout\ $end
$var wire 1 e! \LessThan1~16_combout\ $end
$var wire 1 f! \LessThan1~17_combout\ $end
$var wire 1 g! \LessThan1~21_combout\ $end
$var wire 1 h! \LessThan1~19_combout\ $end
$var wire 1 i! \LessThan1~20_combout\ $end
$var wire 1 j! \LessThan1~26_combout\ $end
$var wire 1 k! \process_0~0_combout\ $end
$var wire 1 l! \LessThan1~18_combout\ $end
$var wire 1 m! \LessThan1~12_combout\ $end
$var wire 1 n! \LessThan1~11_combout\ $end
$var wire 1 o! \LessThan1~13_combout\ $end
$var wire 1 p! \LessThan1~14_combout\ $end
$var wire 1 q! \LessThan1~8_combout\ $end
$var wire 1 r! \LessThan1~9_combout\ $end
$var wire 1 s! \LessThan1~10_combout\ $end
$var wire 1 t! \LessThan1~34_combout\ $end
$var wire 1 u! \LessThan1~35_combout\ $end
$var wire 1 v! \LessThan1~27_combout\ $end
$var wire 1 w! \LessThan1~32_combout\ $end
$var wire 1 x! \indiceLED~0_combout\ $end
$var wire 1 y! \indiceLED~5_combout\ $end
$var wire 1 z! \indiceLED~6_combout\ $end
$var wire 1 {! \LEDs[1]~11_combout\ $end
$var wire 1 |! \indiceLED~1_combout\ $end
$var wire 1 }! \direcao~1_combout\ $end
$var wire 1 ~! \direcao~0_combout\ $end
$var wire 1 !" \direcao~2_combout\ $end
$var wire 1 "" \direcao~q\ $end
$var wire 1 #" \indiceLED~4_combout\ $end
$var wire 1 $" \indiceLED~7_combout\ $end
$var wire 1 %" \indiceLED~8_combout\ $end
$var wire 1 &" \indiceLED~2_combout\ $end
$var wire 1 '" \indiceLED~3_combout\ $end
$var wire 1 (" \Decoder0~0_combout\ $end
$var wire 1 )" \LEDs~0_combout\ $end
$var wire 1 *" \LEDs[1]~1_combout\ $end
$var wire 1 +" \LEDs[0]~reg0_q\ $end
$var wire 1 ," \Decoder0~1_combout\ $end
$var wire 1 -" \LEDs~2_combout\ $end
$var wire 1 ." \LEDs[1]~reg0_q\ $end
$var wire 1 /" \Decoder0~2_combout\ $end
$var wire 1 0" \LEDs~3_combout\ $end
$var wire 1 1" \LEDs[2]~reg0_q\ $end
$var wire 1 2" \Decoder0~3_combout\ $end
$var wire 1 3" \LEDs~4_combout\ $end
$var wire 1 4" \LEDs[3]~reg0_q\ $end
$var wire 1 5" \Decoder0~4_combout\ $end
$var wire 1 6" \LEDs~5_combout\ $end
$var wire 1 7" \LEDs[4]~reg0_q\ $end
$var wire 1 8" \Decoder0~5_combout\ $end
$var wire 1 9" \LEDs~6_combout\ $end
$var wire 1 :" \LEDs[5]~reg0_q\ $end
$var wire 1 ;" \Decoder0~6_combout\ $end
$var wire 1 <" \LEDs~7_combout\ $end
$var wire 1 =" \LEDs[6]~reg0_q\ $end
$var wire 1 >" \Decoder0~7_combout\ $end
$var wire 1 ?" \LEDs~8_combout\ $end
$var wire 1 @" \LEDs[7]~reg0_q\ $end
$var wire 1 A" \Decoder0~8_combout\ $end
$var wire 1 B" \LEDs~9_combout\ $end
$var wire 1 C" \LEDs[8]~reg0_q\ $end
$var wire 1 D" \Decoder0~9_combout\ $end
$var wire 1 E" \LEDs~10_combout\ $end
$var wire 1 F" \LEDs[9]~reg0_q\ $end
$var wire 1 G" indiceLED [3] $end
$var wire 1 H" indiceLED [2] $end
$var wire 1 I" indiceLED [1] $end
$var wire 1 J" indiceLED [0] $end
$var wire 1 K" contador [31] $end
$var wire 1 L" contador [30] $end
$var wire 1 M" contador [29] $end
$var wire 1 N" contador [28] $end
$var wire 1 O" contador [27] $end
$var wire 1 P" contador [26] $end
$var wire 1 Q" contador [25] $end
$var wire 1 R" contador [24] $end
$var wire 1 S" contador [23] $end
$var wire 1 T" contador [22] $end
$var wire 1 U" contador [21] $end
$var wire 1 V" contador [20] $end
$var wire 1 W" contador [19] $end
$var wire 1 X" contador [18] $end
$var wire 1 Y" contador [17] $end
$var wire 1 Z" contador [16] $end
$var wire 1 [" contador [15] $end
$var wire 1 \" contador [14] $end
$var wire 1 ]" contador [13] $end
$var wire 1 ^" contador [12] $end
$var wire 1 _" contador [11] $end
$var wire 1 `" contador [10] $end
$var wire 1 a" contador [9] $end
$var wire 1 b" contador [8] $end
$var wire 1 c" contador [7] $end
$var wire 1 d" contador [6] $end
$var wire 1 e" contador [5] $end
$var wire 1 f" contador [4] $end
$var wire 1 g" contador [3] $end
$var wire 1 h" contador [2] $end
$var wire 1 i" contador [1] $end
$var wire 1 j" contador [0] $end
$var wire 1 k" velocidade [1] $end
$var wire 1 l" velocidade [0] $end
$upscope $end
$upscope $end
$enddefinitions $end
#0
$dumpvars
0!
0"
1#
0$
0/
10
x1
12
13
14
15
16
17
18
09
0:
0;
0T
zU
zV
zW
0X
0Y
0Z
0[
0\
0]
0^
0_
0`
0a
1b
1c
0d
0e
0f
0g
0h
0i
0j
1k
0l
1m
0n
0o
0p
1q
0r
0s
0t
1u
0v
0w
0x
1y
0z
0{
0|
1}
0~
0!!
0"!
1#!
0$!
0%!
0&!
1'!
0(!
0)!
0*!
1+!
0,!
0-!
0.!
1/!
00!
01!
02!
13!
04!
05!
06!
17!
08!
09!
0:!
0;!
0<!
1=!
0>!
0?!
0@!
1A!
0B!
0C!
0D!
0E!
0F!
0G!
1H!
0I!
0J!
0K!
1L!
1M!
0N!
0O!
0P!
1Q!
0R!
0S!
0T!
1U!
0V!
0W!
0X!
1Y!
0Z!
0[!
0\!
1]!
1^!
0_!
0`!
0a!
0b!
1c!
0d!
0e!
0f!
0g!
0h!
0i!
1j!
0k!
0l!
0m!
1n!
0o!
0p!
0q!
0r!
1s!
0t!
0u!
0v!
1w!
0x!
0y!
0z!
0{!
1|!
0}!
0~!
0!"
0""
0#"
0$"
0%"
1&"
0'"
1("
1)"
0*"
0+"
0,"
0-"
0."
0/"
00"
01"
02"
03"
04"
05"
06"
07"
08"
09"
0:"
0;"
0<"
0="
0>"
0?"
0@"
0A"
0B"
0C"
0D"
0E"
0F"
0%
0&
0'
0(
0)
0*
0+
0,
0-
0.
0<
0=
0>
0?
0@
0A
0B
0C
0D
0E
0G"
0H"
0I"
0J"
0K"
0L"
0M"
0N"
0O"
0P"
0Q"
0R"
0S"
0T"
0U"
0V"
0W"
0X"
0Y"
0Z"
0["
0\"
0]"
0^"
0_"
0`"
0a"
0b"
0c"
0d"
0e"
0f"
0g"
0h"
0i"
0j"
0k"
0l"
1P
1Q
1R
1S
0F
0G
0H
0I
0J
0K
0L
0M
0N
0O
$end
#10000
1!
1"
0#
1;
1:
08
0b
18!
1d
0S
1e
1g
0c
#20000
0!
0"
0;
0:
08!
0d
0e
0g
#30000
1!
1$
1;
19
1i
1d
1e
1g
1j
0k
#40000
0!
0$
1"
1#
0;
09
1:
18
1b
18!
0i
0d
1S
0e
0g
0j
1k
1c
1l
1*"
#50000
1!
1$
0"
1;
19
0:
08!
1i
1d
1e
1g
1j
0k
#60000
1"
1:
18!
19!
1;!
#70000
0"
0!
0$
0#
0:
0;
09
08
0b
0i
0d
08!
0S
0e
0g
0j
09!
0;!
1k
0c
#80000
1!
1$
1;
19
1i
1d
1e
1g
1j
0k
#100000
0!
1#
0;
18
1b
0d
1S
0e
0g
1c
0l
1j"
1+"
1X
0m
1o
0*"
1E
1p
1.
#110000
0$
1"
09
1:
18!
0i
0j
1k
#120000
1$
19
1i
1j
19!
1;!
0k
#130000
0$
09
0i
0j
09!
0;!
1k
#140000
1$
0"
19
0:
08!
1i
1j
0k
#150000
1"
1!
1:
1;
1d
18!
19!
1;!
1e
1g
#170000
0"
0!
0$
0#
0:
0;
09
08
0b
0i
0d
08!
0S
0e
0g
0j
09!
0;!
1k
0c
#180000
1#
18
1b
1S
1c
1l
1*"
#190000
1$
19
1i
1j
0k
#210000
1!
1;
1d
1e
1g
#220000
0!
0#
1"
0;
08
1:
18!
0b
0d
0S
0e
0g
19!
1;!
0c
#230000
0"
0$
0:
09
0i
08!
0j
09!
0;!
1k
#240000
1"
1:
18!
#250000
1!
1;
1d
1e
1g
#260000
1$
19
1i
1j
19!
1;!
0k
#270000
0$
0"
09
0:
08!
0i
0j
09!
0;!
1k
#280000
1"
1:
18!
#290000
1$
1#
19
18
1b
1i
1S
1j
19!
1;!
0k
1c
1f
1h
0l
0j"
1i"
1:!
1l"
1G!
1I!
1`!
1h!
1k!
1l!
1r!
0p
0q
1m
0o
1n
07!
1{!
1p
1q
1r
0r
#300000
0$
0#
0"
0!
09
08
0:
0;
0d
08!
0b
0i
0S
0e
0c
#310000
1$
1"
1!
19
1:
1;
1d
18!
1i
1e
#320000
0"
0:
08!
#330000
0!
0;
0d
0e
#340000
0$
1#
09
18
1b
0i
1S
1c
0f
0h
0i"
0l"
0G!
0I!
0`!
0h!
0k!
0l!
0r!
0p
0j
0n
17!
0;!
0{!
0*"
0g
1k
#350000
1$
0#
1!
1"
19
08
1;
1:
18!
1d
0b
1i
0S
1j
1e
1g
0k
0c
#360000
0$
1#
0"
09
18
0:
08!
1b
0i
1S
0j
1k
1c
1f
1h
1l
1j
1n
07!
1;!
1{!
1*"
0k
#370000
1$
1"
0!
19
1:
0;
0d
18!
1i
0e
#380000
0"
1!
0:
1;
1d
08!
1e
#390000
1"
0!
0#
1:
0;
08
0b
0d
18!
0S
0e
0c
#400000
1#
18
1b
1S
1c
0f
0h
0l
0n
17!
0;!
0{!
0*"
0g
#420000
0"
1!
0:
1;
1d
08!
09!
1e
1g
#430000
0!
0;
0d
0e
0g
#440000
1!
1"
0$
1;
1:
09
0i
18!
1d
1e
1g
0j
19!
1k
#450000
0!
0#
0;
08
0b
0d
0S
0e
0g
0c
#460000
1#
18
1b
1S
1c
1l
1*"
#470000
0#
1$
08
19
1i
0b
0S
1j
0k
0c
#480000
1#
0$
18
09
0i
1b
1S
0j
1k
1c
#500000
1$
19
1i
1j
0k
#510000
0$
1!
0"
09
1;
0:
08!
1d
0i
0j
1e
1g
1k
#520000
0!
0;
0d
0e
0g
#530000
1$
0#
19
08
0b
1i
0S
1j
09!
0k
0c
#540000
0$
1#
1"
09
18
1:
18!
1b
0i
1S
0j
19!
1k
1c
#550000
0#
0"
08
0:
08!
0b
0S
0c
#560000
1#
1"
1$
1!
18
1:
19
1;
1d
1i
18!
1b
1S
1j
1e
1g
0k
1c
1f
1h
0l
1j"
0m
1o
1n
07!
1;!
1{!
1p
#570000
0"
0$
0:
09
0i
08!
#580000
1"
0!
1:
0;
0d
18!
0e
#600000
0"
1$
0:
19
1i
08!
#610000
0$
0#
09
08
0b
0i
0S
0c
#620000
1$
1#
1!
19
18
1;
1d
1b
1i
1S
1e
1c
0h
0j"
1m
0o
0g
0n
17!
09!
0;!
0{!
0*"
0p
#630000
0$
0!
09
0;
0d
0i
0j
19!
0e
1k
#640000
0#
08
0b
0S
0c
#650000
1#
1$
1!
1"
18
19
1;
1:
18!
1d
1i
1b
1S
1j
1e
0k
1c
1j"
0m
1o
1p
#660000
0$
09
0i
0j
1k
#670000
1$
0#
0"
19
08
0:
08!
0b
1i
0S
1j
09!
0k
0c
#680000
0$
0!
09
0;
0d
0i
0j
19!
0e
1k
#690000
1$
1"
19
1:
18!
1i
1j
0k
#700000
0$
1!
1#
09
1;
18
1b
1d
0i
1S
0j
1e
1k
1c
1l
1*"
#710000
0"
0:
08!
#720000
1$
0!
0#
19
0;
08
0b
0d
1i
0S
1j
09!
0e
0k
0c
#730000
0$
1!
1"
09
1;
1:
18!
1d
0i
0j
1e
19!
1k
#740000
1$
0"
19
0:
08!
1i
1j
09!
0k
#750000
1"
0!
1:
0;
0d
18!
19!
0e
#760000
0$
09
0i
0j
1k
#770000
1$
0"
19
0:
08!
1i
1j
09!
0k
#780000
0$
1"
1!
1#
09
1:
1;
18
1b
1d
18!
0i
1S
0j
19!
1e
1k
1c
#790000
0"
0!
0:
0;
0d
08!
0e
#800000
1"
1$
1:
19
1i
18!
1j
0k
#810000
0$
09
0i
0j
1k
#820000
1$
0#
19
08
0b
1i
0S
1j
0k
0c
#830000
1#
0"
18
0:
08!
1b
1S
09!
1c
0f
0l
0j"
1i"
0:!
0p
0q
1m
0o
0*"
1p
1q
1r
0r
#840000
0#
1!
08
1;
1d
0b
0S
1e
1g
0c
#850000
1"
0$
1:
09
0i
18!
0j
1k
#860000
1$
19
1i
1j
19!
1;!
0k
#870000
0"
1#
0:
18
1b
08!
1S
09!
0;!
1c
1f
1h
1j"
0m
1o
1n
07!
1;!
1{!
1*"
0p
0q
1r
#880000
1"
0#
1:
08
0b
18!
0S
0c
#890000
0"
0!
0:
0;
0d
08!
0e
#900000
1"
1!
1#
0$
1:
1;
18
09
0i
1b
1d
18!
1S
1e
1c
0h
0j"
0i"
1p
1q
1m
0o
0g
0j
0n
17!
0;!
0{!
0*"
1k
0p
0r
#910000
0!
1$
0;
19
1i
0d
0e
1j
19!
1;!
0k
#920000
0$
0#
09
08
0b
0i
0S
0j
09!
0;!
1k
0c
#930000
1$
1#
1!
0"
19
18
1;
0:
08!
1d
1b
1i
1S
1j
1e
0k
1c
1j"
0m
1o
1p
#940000
0$
1"
09
1:
18!
0i
0j
1k
#950000
1$
0"
0#
0!
19
0:
08
0;
0d
0b
08!
1i
0S
1j
0e
0k
0c
#960000
0$
1#
09
18
1b
0i
1S
0j
1k
1c
0f
1l
1*"
#970000
1$
0#
1"
19
08
1:
18!
0b
1i
0S
1j
19!
1;!
0k
0c
#980000
0$
1!
09
1;
1d
0i
0j
09!
0;!
1e
1g
1k
