relatorio2/simulation/qsim/projeto2.msim.vcd
$comment
	File created using the following command:
		vcd file projeto2.msim.vcd -direction
$end
$date
	Wed Oct 30 23:20:51 2024
$end
$version
	ModelSim Version 10.5b
$end
$timescale
	1ps
$end

$scope module projeto2_vhd_vec_tst $end
$var wire 1 ! sw1 $end
$var wire 1 " sw2 $end
$var wire 1 # sw3 $end
$var wire 1 $ sw4 $end
$var wire 1 % z $end

$scope module i1 $end
$var wire 1 & gnd $end
$var wire 1 ' vcc $end
$var wire 1 ( unknown $end
$var wire 1 ) devoe $end
$var wire 1 * devclrn $end
$var wire 1 + devpor $end
$var wire 1 , ww_devoe $end
$var wire 1 - ww_devclrn $end
$var wire 1 . ww_devpor $end
$var wire 1 / ww_sw1 $end
$var wire 1 0 ww_sw2 $end
$var wire 1 1 ww_sw3 $end
$var wire 1 2 ww_sw4 $end
$var wire 1 3 ww_z $end
$var wire 1 4 \~QUARTUS_CREATED_ADC1~_CHSEL_bus\ [4] $end
$var wire 1 5 \~QUARTUS_CREATED_ADC1~_CHSEL_bus\ [3] $end
$var wire 1 6 \~QUARTUS_CREATED_ADC1~_CHSEL_bus\ [2] $end
$var wire 1 7 \~QUARTUS_CREATED_ADC1~_CHSEL_bus\ [1] $end
$var wire 1 8 \~QUARTUS_CREATED_ADC1~_CHSEL_bus\ [0] $end
$var wire 1 9 \~QUARTUS_CREATED_ADC2~_CHSEL_bus\ [4] $end
$var wire 1 : \~QUARTUS_CREATED_ADC2~_CHSEL_bus\ [3] $end
$var wire 1 ; \~QUARTUS_CREATED_ADC2~_CHSEL_bus\ [2] $end
$var wire 1 < \~QUARTUS_CREATED_ADC2~_CHSEL_bus\ [1] $end
$var wire 1 = \~QUARTUS_CREATED_ADC2~_CHSEL_bus\ [0] $end
$var wire 1 > \~QUARTUS_CREATED_GND~I_combout\ $end
$var wire 1 ? \~QUARTUS_CREATED_UNVM~~busy\ $end
$var wire 1 @ \~QUARTUS_CREATED_ADC1~~eoc\ $end
$var wire 1 A \~QUARTUS_CREATED_ADC2~~eoc\ $end
$var wire 1 B \z~output_o\ $end
$var wire 1 C \sw2~input_o\ $end
$var wire 1 D \sw1~input_o\ $end
$var wire 1 E \sw3~input_o\ $end
$var wire 1 F \sw4~input_o\ $end
$var wire 1 G \z~0_combout\ $end
$var wire 1 H \ALT_INV_z~0_combout\ $end
$upscope $end
$upscope $end
$enddefinitions $end
#0
$dumpvars
1!
0"
0#
0$
1%
0&
1'
x(
1)
1*
1+
1,
1-
1.
1/
00
01
02
13
0>
z?
z@
zA
1B
0C
1D
0E
0F
0G
1H
04
05
06
07
08
09
0:
0;
0<
0=
$end
#10000
0!
1"
1$
0/
10
12
1F
1C
0D
#20000
0"
0$
1#
00
02
11
1E
0F
0C
#30000
1"
1$
1!
10
12
1/
1D
1F
1C
1G
0H
0B
03
0%
#40000
0!
0#
0/
01
0E
0D
0G
1H
1B
13
1%
#50000
1#
0"
11
00
0C
1E
#60000
1"
10
1C
1G
0H
0B
03
0%
#70000
0#
1!
0$
01
1/
02
0F
1D
0E
0G
1H
1B
13
1%
#80000
0!
0/
0D
#90000
1!
0"
1/
00
0C
1D
#100000
1"
1#
10
11
1E
1C
1G
0H
0B
03
0%
#110000
0#
1$
01
12
1F
0E
#120000
0"
00
0C
0G
1H
1B
13
1%
#130000
0$
02
0F
#150000
1$
0!
12
0/
0D
1F
#170000
0$
1!
1"
1#
02
1/
10
11
1E
1C
1D
0F
1G
0H
0B
03
0%
#180000
1$
0#
12
01
0E
1F
#190000
1#
11
1E
#200000
0$
0"
02
00
0C
0F
0G
1H
1B
13
1%
#210000
0#
0!
01
0/
0D
0E
#220000
1"
10
1C
#230000
1!
1/
1D
#240000
0!
0"
0/
00
0C
0D
#250000
1!
1"
1#
1/
10
11
1E
1C
1D
1G
0H
0B
03
0%
#260000
0"
0#
00
01
0E
0C
0G
1H
1B
13
1%
#270000
1"
1#
0!
10
11
0/
0D
1E
1C
1G
0H
0B
03
0%
#290000
1!
1/
1D
#300000
0#
1$
01
12
1F
0E
#310000
0"
00
0C
0G
1H
1B
13
1%
#320000
1"
1#
0$
0!
10
11
02
0/
0D
0F
1E
1C
1G
0H
0B
03
0%
#330000
0"
00
0C
0G
1H
1B
13
1%
#350000
1$
1!
12
1/
1D
1F
1G
0H
0B
03
0%
#360000
0!
0/
0D
0G
1H
1B
13
1%
#370000
1!
1/
1D
1G
0H
0B
03
0%
#390000
0$
1"
02
10
1C
0F
#400000
0"
00
0C
0G
1H
1B
13
1%
#410000
1"
0!
0#
10
0/
01
0E
0D
1C
#430000
0"
1#
1$
00
11
12
1F
1E
0C
#440000
0$
1!
02
1/
1D
0F
#450000
1$
0!
0#
12
0/
01
0E
0D
1F
#460000
0$
1#
1"
02
11
10
1C
1E
0F
1G
0H
0B
03
0%
#470000
0#
1!
01
1/
1D
0E
0G
1H
1B
13
1%
#480000
0!
0"
0/
00
0C
0D
#490000
1#
11
1E
#500000
0#
1"
01
10
1C
0E
#510000
1!
1/
1D
#520000
0!
1#
0/
11
1E
0D
1G
0H
0B
03
0%
#540000
0"
1$
00
12
1F
0C
0G
1H
1B
13
1%
#550000
1!
1/
1D
1G
0H
0B
03
0%
#560000
0!
0#
0/
01
0E
0D
0G
1H
1B
13
1%
#570000
1!
1"
1/
10
1C
1D
1G
0H
0B
03
0%
#580000
0!
0/
0D
0G
1H
1B
13
1%
#590000
0"
0$
00
02
0F
0C
#600000
1#
11
1E
#610000
1"
1$
10
12
1F
1C
1G
0H
0B
03
0%
#620000
0"
1!
00
1/
1D
0C
#630000
1"
10
1C
#640000
0"
0!
0$
00
0/
02
0F
0D
0C
0G
1H
1B
13
1%
#650000
1"
0#
10
01
0E
1C
#670000
1!
1/
1D
#680000
0!
0"
1$
0/
00
12
1F
0C
0D
#690000
1!
0$
1/
02
0F
1D
#700000
0!
1$
1"
1#
0/
12
10
11
1E
1C
1F
0D
1G
0H
0B
03
0%
#710000
0$
02
0F
#730000
1!
1/
1D
#740000
0!
1$
0#
0/
12
01
0E
1F
0D
0G
1H
1B
13
1%
#750000
0$
0"
02
00
0C
0F
#760000
1"
1!
1#
10
1/
11
1E
1D
1C
1G
0H
0B
03
0%
#770000
0!
0/
0D
#780000
1!
0"
0#
1/
00
01
0E
0C
1D
0G
1H
1B
13
1%
#790000
0!
1"
1#
0/
10
11
1E
1C
0D
1G
0H
0B
03
0%
#800000
1$
12
1F
#810000
0$
0"
02
00
0C
0F
0G
1H
1B
13
1%
#820000
1$
1"
0#
12
10
01
0E
1C
1F
#830000
0$
02
0F
#840000
1$
1#
1!
12
11
1/
1D
1E
1F
1G
0H
0B
03
0%
#850000
0$
0#
0!
02
01
0/
0D
0E
0F
0G
1H
1B
13
1%
#860000
1$
1!
0"
12
1/
00
0C
1D
1F
#870000
0!
0/
0D
#880000
1!
1"
1/
10
1C
1D
1G
0H
0B
03
0%
#890000
1#
11
1E
#900000
0!
0$
0/
02
0F
0D
#910000
1!
0"
1/
00
0C
1D
0G
1H
1B
13
1%
#920000
1$
12
1F
1G
0H
0B
03
0%
#940000
0$
1"
0#
02
10
01
0E
1C
0F
0G
1H
1B
13
1%
#950000
0"
1#
0!
00
11
0/
0D
1E
0C
#960000
1"
1$
10
12
1F
1C
1G
0H
0B
03
0%
#970000
0"
0$
1!
00
02
1/
1D
0F
0C
0G
1H
1B
13
1%
#980000
0#
01
0E
#990000
0!
0/
0D
